<?xml version="1.0" encoding="UTF-8" standalone="no"?>
<!-- Created with Inkscape (http://www.inkscape.org/) -->

<svg
   xmlns:dc="http://purl.org/dc/elements/1.1/"
   xmlns:cc="http://creativecommons.org/ns#"
   xmlns:rdf="http://www.w3.org/1999/02/22-rdf-syntax-ns#"
   xmlns:svg="http://www.w3.org/2000/svg"
   xmlns="http://www.w3.org/2000/svg"
   xmlns:xlink="http://www.w3.org/1999/xlink"
   xmlns:sodipodi="http://sodipodi.sourceforge.net/DTD/sodipodi-0.dtd"
   xmlns:inkscape="http://www.inkscape.org/namespaces/inkscape"
   width="210mm"
   height="297mm"
   viewBox="0 0 210 297"
   version="1.1"
   id="svg910"
   inkscape:version="0.92.2 2405546, 2018-03-11"
   sodipodi:docname="nomad1.svg">
  <defs
     id="defs904">
    <clipPath
       clipPathUnits="userSpaceOnUse"
       id="clipPath1465">
      <rect
         style="opacity:1;vector-effect:none;fill:#ffffff;fill-opacity:1;stroke:none;stroke-width:0.185;stroke-linecap:butt;stroke-linejoin:round;stroke-miterlimit:4;stroke-dasharray:none;stroke-dashoffset:0;stroke-opacity:0.94527366"
         id="rect1467"
         width="30.899553"
         height="22.300594"
         x="48.75893"
         y="82.215034" />
    </clipPath>
  </defs>
  <sodipodi:namedview
     id="base"
     pagecolor="#ffffff"
     bordercolor="#666666"
     borderopacity="1.0"
     inkscape:pageopacity="0.0"
     inkscape:pageshadow="2"
     inkscape:zoom="0.70000001"
     inkscape:cx="815.93834"
     inkscape:cy="428.05479"
     inkscape:document-units="mm"
     inkscape:current-layer="layer1"
     showgrid="false"
     inkscape:window-width="1920"
     inkscape:window-height="1028"
     inkscape:window-x="0"
     inkscape:window-y="28"
     inkscape:window-maximized="1" />
  <metadata
     id="metadata907">
    <rdf:RDF>
      <cc:Work
         rdf:about="">
        <dc:format>image/svg+xml</dc:format>
        <dc:type
           rdf:resource="http://purl.org/dc/dcmitype/StillImage" />
        <dc:title></dc:title>
      </cc:Work>
    </rdf:RDF>
  </metadata>
  <g
     inkscape:label="Layer 1"
     inkscape:groupmode="layer"
     id="layer1">
    <rect
       style="opacity:1;vector-effect:none;fill:#ffffff;fill-opacity:1;stroke:none;stroke-width:0.55836791;stroke-linecap:butt;stroke-linejoin:round;stroke-miterlimit:4;stroke-dasharray:none;stroke-dashoffset:0;stroke-opacity:1"
       id="rect1479"
       width="79.375"
       height="79.375"
       x="215.35963"
       y="82.964874"
       inkscape:export-filename="/home/bodymind/guerr/andhub/ic_launcher-web.png"
       inkscape:export-xdpi="96"
       inkscape:export-ydpi="96" />
    <rect
       style="opacity:1;vector-effect:none;fill:#438a6b;fill-opacity:1;stroke:none;stroke-width:0.18781169;stroke-linecap:butt;stroke-linejoin:round;stroke-miterlimit:4;stroke-dasharray:none;stroke-dashoffset:0;stroke-opacity:0.94527366"
       id="rect1469"
       width="139.15202"
       height="33.45089"
       x="35.246281"
       y="74.088539"
       inkscape:export-xdpi="288"
       inkscape:export-ydpi="288" />
    <image
       width="120.38541"
       height="34.924999"
       preserveAspectRatio="none"
       xlink:href="data:image/png;base64,iVBORw0KGgoAAAANSUhEUgAABVUAAAGMCAYAAADa5EJLAAAABHNCSVQICAgIfAhkiAAAAAlwSFlz AAAsSwAALEsBpT2WqQAAABl0RVh0U29mdHdhcmUAd3d3Lmlua3NjYXBlLm9yZ5vuPBoAACAASURB VHic7N15eBzVnS7+91S3tpZkWau1oc2WZHmRV/AqvAO2wYaExb8EAgnLJCRMwmAJM3fuM525d5BU LcZJnOFOnOVmGTIhZBJyIQbCYhNWOwaMd2PjDWwZL1jY1q7u+v3hSHiT1a3uqnOq6v08D89kwO5+ adytrre+5xwBwAARERERERERERERDaioqAgCLFWJiIiIiIiIiIiIwubt/R933303kpOTZWYhIiIi IiIiIiIiUlJrayt++tOfAjinVE1ISEBiYqK0UERERERERERERESq6unp6fvfmsQcRERERERERERE RLbDUpWIiIiIiIiIiIgoAixViYiIiIiIiIiIiCLAUpWIiIiIiIiIiIgoAixViYiIiIiIiIiIiCLA UpWIiIiIiIiIiIgoAixViYiIiIiIiIiIiCLAUpWIiIiIiIiIiIgoAixViYiIiIiIiIiIiCLAUpWI iIiIiIiIiIgoAixViYiIiIiIiIiIiCLAUpWIiIiIiIiIiIgoAixViYiIiIiIiIiIiCLAUpWIiIiI iIiIiIgoAixViYiIiIiIiIiIiCLAUpWIiIiIiIiIiIgoAixViYiIiIiIiIiIiCLAUpWIiIiIiIiI iIgoAixViYiIiIiIiIiIiCLAUpWIiIiIiIiIiIgoAixViYiIiIiIiIiIiCLAUpWIiIiIiIiIiIgo AixViYiIiIiIiIiIiCLAUpWIiIiIiIiIiIgoAixViYiIiIiIiIiIiCLAUpWIiIiIiIiIiIgoAixV iYiIiIiIiIiIiCLAUpWIiIiIiIiIiIgoAixViYiIiIiIiIiIiCLAUpWIiIiIiIiIiIgoAixViYiI iIiIiIiIiCLAUpWIiIiIiIiIiIgoAixViYiIiIiIiIiIiCLAUpWIiIiIiIiIiIgoAixViYiIiIiI iIiIiCLAUpWIiIiIiIiIiIgoAixViYiIiIiIiIiIiCLAUpWIiIiIiIiIiIgoAixViYiIiIiIiIiI iCLAUpWIiIiIiIiIiIgoAixViYiIiIiIiIiIiCLAUpWIiIiIiIiIiIgoAixViYiIiIiIiIiIiCLA UpWIiIiIiIiIiIgoAixViYiIiIiIiIiIiCLAUpWIiIiIiIiIiIgoAixViYiIiIiIiIiIiCLAUpWI iIiIiIiIiIgoAixViYiIiIiIiIiIiCLAUpWIiIiIiIiIiIgoAixViYgoYoZhyI5AREREREREJA1L VSIiIiIiIiIiIqIIsFQlIiIiIiIiIiIiigBLVSIiIiIiIiIiIqIIsFQlIiIiIiIiIiIiigBLVSIi IiIiIiIiIqIIsFQlIiIiIiIiIiIiigBLVSIiIiIiIiIiIqIIsFQlIiIiIiIiIiIiigBLVSIiIiIi IiIiIqIIsFQlIiIiIiIiIiIiigBLVSIiIiIiIiIiIqIIsFQlIiIiIiIiIiIiigBLVSIiIiIiIiIi IqIIsFQlIiIiIiIiIiIiigBLVSIiIiIiIiIiIqIIsFQlIiIiIiIiIiIiigBLVSIiIiIiIiIiIqII sFQlIiIiIiIiIiIiigBLVSIiIiIiIiIiIqIIsFQlIiIiIiIiIiIiigBLVSIiIiIiIiIiIqIIsFQl IiIiIiIiIiIiigBLVSIiIiIiIiIiIqIIsFQlIiIiIiIiIiIiigBLVSIiIiIiIiIiIqIIsFQlIiIi IiIiIiIiigBLVSIiIiIiIiIiIqIIsFQlIiIiIiIiIiIiigBLVSIiIiIiIiIiIqIIsFQlIiIiIiIi IiIiigBLVSIiIiIiIiIiIqIIsFQlIiIiIiIiIiIiigBLVSIiIiIiIiIiIqIIsFQlIiIiIiIiIiIi igBLVSIiIiIiIiIiIqIIsFQlIiIiIiIiIiIiigBLVSIiIiIiIiIiIqIIsFQlIiIiIiIiIiIiigBL VSIiIiIiIiIiIqIIsFQlIiIiIiIiIiIiigBLVSIiIiIiIiIiIqIIsFQlIiIiIiIiIiIiigBLVSJq FkLMMAzjqwCOyA5DRERERERERKQ6lqpE7rYBwOTGxsY3A4HAz9vb2ysB/BuAbsm5iIiIiIiIiIiU xVKVyKUMw/ilz+ebpev64d6/t2rVqlO6rj8EYByAF+WlIyIiIiIiIiJSl1d2ACKyXFAIUafr+r/1 9wt0Xd8B4Jrly5ffpGnaYwBKrYtHRERERERERKQ2TqoSucunABY2Njb2W6ieq6mp6Q/d3d2jDcP4 ZwBt5kYjIiIiIiIiIrIHlqpE7rFN07Qpuq5HtKx/5cqV7YFA4F+EEFUAfmdSNiIiIiIiIiIi2+Dy fyIXMAzjj0KIOxoaGk4P9jEaGxsPArhlxYoVc0Oh0A8AjI5dQiIiIiIislJmZiaKi4uRl5eH7Oxs pKenw+fzIS4uru/XtLe348yZMzhx4gSOHj2KAwcO4ODBg+ju5rm2REQsVYmczQDwv5OTk/1+vz8U iwdsaGh4xe/3j29tbf2mEMIPYGgsHpeIiIiIiMzj8XhQXl6OUaNGoaqqCkOGDBnw9yQlJSEjIwNF RUV9fy8YDGLv3r3YunUrNm/ejLY27hJGRO4kcLZ0wf3334+UlBTJcYgohloB3KXrumlL9pcvX56j adqjAL4KbifiKoZhQAghOwYRERERDSAzMxPTpk3DhAkTYn7N39PTgy1btuC1117DoUOHYvrYREQq OnPmDB5//HEALFWJnOojTdNuamhoeMeKJ6utrZ0ohFgFYLoVz0fysVQlIiIiUltBQQHmzp2L0aNH m/69zTAM7Nq1Cy+88AIOHz5s6nMREcl0bqnK5f9EzvOXYDD4RV3Xj1v1hIFA4F0AM2tra+8UQtQD yLXquYmIiIiI6HNDhw7Fddddh/Hjx1t2E1wIgZEjR6KyshIbN27Es88+i46ODkuem4hIFpaqRM7y pM/nu8vv98v4BmMEAoGfL1++/ClN02oBrACQICEHERG5hMfjgc/nQ3Jyct//FUJACIHExEQAQHd3 N3p6egAAHR0dOHPmDNra2tDa2sqDViTxer3Iz89HVlYWMjIy+v7qPSAnPj4eHo8HiYmJ6OjoQHd3 N7q7u9HR0YGuri589tlnOHnyJFpaWtDS0oKTJ0/ixIkTff+dSR2978WOjg4YhiE7juMlJiZi9uzZ mDlz5nmHTVlJCIErr7wSBw8exIYNG6RksCuv14vCwkIUFxfD6/UiGAyip6cH3d3dMAyjr6Tu7OxE KBRCT08Purq6AJw9UOzCf8afcUTmY6lK5AyGYRj+QCDwv/C3LT1kaWpqagXgr6urexLA9wEskJmH SDXp6el9p+ympaUhNTUVCQkJ0DQNwWAQXV1daG9v7ysQTpw4gRMnTuD48eNobW2VHd/2vF4vcnJy kJycjKSkJCQkJCAhIQGGYaCtrQ1tbW1ob2/HqVOn0NLSIjsu4ewFemZmJvLz85Gbm3teCZeamhrV Y7e3t+PTTz/t++vIkSNobm7G0aNHEQwGY/RvQJqmYfjw4SgtLUVZWRmuuOIKeL3hXYYkJSUhKSlp wF8XDAZx7NgxHD58GM3NzTh8+DAOHz7MA3RM0vtZmpOTg+zsbAwZMgSpqalIS0tDSkoK4uLi+n62 nav359yZM2fQ2tqK06dP49SpUzh27BiOHTuGo0eP4tSpU5L+rexNCIG///u/R2ZmpuwoAICKigqW qgNISUlBUVERSktLUVxcjIKCgrA/G8PVXxnbW9ReWMb2vkcH+n0X/rPu7m4cOXKE08nkOixVieyv E8DdgUDgCdlBzqXr+g4A1yxfvvwmTdP+DUCJ5EhEUmiahhEjRqC6uhrl5eUYOnTooB+rvb0dx48f R3NzMw4cOIADBw7g2LFjMUzrLEII5Ofno7y8vK+Qy87Ovugivz9nzpzBxx9/jEOHDuHgwYPYs2cP J+EskJiYiOLiYpSWlqK0tBT5+fmIj4835bmSkpJQUFCAgoKC8/5+T08PmpubsW/fPuzduxf79+/v u/Ck8OXm5mLSpEmYMGFC1AX4QDweD3Jzc5Gb+/kORIZh4OjRo9i7dy/27t2Lffv24fTp06bmcCJN 05Cfn4+SkhIUFRWhsLAQ6enpYX+Wnsvj8fQV5dnZ2Zf8Ne3t7Thw4AAOHjyI/fv34+DBg5y4C0Np aakyhSoAjBgxApqmIRQKyY6iBCEEcnJyUFxcjOLiYpSUlCArK8uS5+29MRXODapo9H7mfvTRR31/ HTlyhDcpydF4UBWRvZ0wDOOmQCDwmuwgl/Pggw8meb3eWiHEwwB8svNQ9HhQ1cC8Xi+mTJmCq6++ OqoidSCtra04ePAgDhw4gDfeeKNvGZhbeTweDB8+HKNHj0ZVVRXS0tJi9tgdHR3YsWMH3n//feze vZsFawzl5uZi1KhRqKqqQmFh4aDKGjOFQiEcPHgQ27Ztw7Zt23DixAnZkZQ3Y8YMLFmyRHaMixw9 ehSvvvoqNm7cKDuKLYwaNQpf+tKXpC0lB4Bf/epX2Lp1q7Tnt4ubb74ZV155pewY53n88cdx4MAB 2TGk83g8+Kd/+if4fO67DOru7sahQ4fw0UcfYffu3di7dy9vkpDt8aAqImfYbRjG4kAgsFt2kIGs XLmyHcC/PPTQQ7/weDxNAG6WnYnITBUVFbjxxhstmRhJTk5GVVUVqqqqEB8fjxdeeMH051TRkCFD MHXqVEyZMsW0m8SJiYmYMGECJkyYgPb2drz99tt4/fXXcebMGVOez+mGDRuGiRMnorq6GhkZGbLj XJamaSgpKUFJSQkWL16M5uZmbNy4Ee+99x635ejHkCFDZEe4pJycHMyYMYOlahiEEFiwYIHUQhUA p8TD4PV6MXbsWNkxLlJRUcFSFWcPDnNjoQoAcXFxfT8/a2pq0N3djQ8//BA7d+7Erl278Omnn8qO SBQVlqpE9vSmx+O5sb6+3lbrfh977LEDAG5ZsWLF7FAo9AMA6n37I4qCpmm45pprMHv2bCmTvFdf fTU2btzoqim6goICzJo1C2PGjIHH47HseZOSkjBnzhzMnDkTGzduxKuvvoqTJ09a9vx2lZiYiEmT JmHSpEkXLbm3k7y8PNxwww1YtGgRtm/fjjfeeAP79u2THUspZi8zjUZeXh5SU1O5FcAARo4cifz8 fNkxuEdjGKqqqvoO51NJRUUFXnzxRdkxpFP9xqGV4uLiMHLkSIwcORIAcOzYMezcuRM7duzA3r17 eaAd2Q5LVSL7eaK9vf3uVatWdcoOMlgNDQ3r/H7/xNbW1m8KIfwAzFsbTWQRTdNw2223Yfz48dIy eL1e3HDDDfj5z38uLYPVFi5ciPLycmnPHxcXh2nTpmHUqFF49NFHpeVQXVZWFmbMmIFJkyYhISFB dpyY8Xg8GDt2LMaOHYuDBw/itddew5YtW3hRCLVLVSEEysvL8e6778qOorS5c+fKjgCApWo4Jk6c KDvCJRUWFsLn87n+wDiWqv3Lzs5GdnY2ampqcOrUKbz//vvYtGkTPv74Y9nRiMLCUpXIPgwA/6Lr +nf/9r9tze/39wD4/vLly/9L07RHAXwVgFqb6BFF4KabbpJaqPaqqqrCyJEjsXPnTtlRLKFKcdPZ adv7XKYqKCjA/PnzUVVV5fh9mIuKivDlL38ZR44cwQsvvIDt27fLjiSV6ktdKyoqWKpeRkVFBYqK imTHAMDl/wPx+XyorKyUHeOSNE1DeXk53n//fdlRpFLpADGVDRkyBDU1NaipqcEnn3yC9evX4913 3+VnACmNpSqRPXQCuFfX9V/JDhJrTU1NRwHcs2LFih8ZhrHKMIwpsjMRRaq6uhpXXXWV7Bh9brjh BtecVK/KckdOUp3viiuuwPz58/uW97lJbm4u7rzzThw4cADPPvssDh48KDuSFKrc8OhPeXk5hBCc Ku7HvHnzZEcAcPZgTH6+Xl51dbWl299EqqKiwvWlKidVIzds2DAsWbIEixYtwqZNm/D666+jublZ diyii7BUJVLfp5qmfbGhoWGd7CBmamho+CuAabW1tXcIIRoB5MrORBSuYcOGyY5wnqysLMycORPr 1q2THcV0qhQ3nKI4Kz09HQsXLkR1dbXjJ1MHUlxcjPvvvx8bNmzA888/77rlr6pPqqakpCA/Px+H Dh2SHUU5ZWVlKCkpkR0DwNmTw0OhkOwYSpswYYLsCJfFGxgsVaPh9XoxefJkTJ48GXv27MFrr72G Xbt2ufrPE6mFS22J1LYfwHSnF6rnMAKBwC/b29srAfwbgG7ZgYjCocq05LnmzZuHtLQ02TFMp8pr 7/ZJqoSEBCxcuBDLly/HuHHjXF+o9hJCYMqUKX2vi5uocsPjclRdMi3b/PnzZUfowxtWl5eRkYHi 4mLZMS4rLS1NuZvPVmOpGhsjRozAV7/6VTzwwAOu2FaI7IGlKpG6tnR3d8/UdX2X7CBWW7Vq1Sld 1x/yeDxjAKyRnYdoICqWB/Hx8Vi0aJHsGKaKi4tTZsmjm0vVUaNG4aGHHsLs2bPh9XIR1KUkJyfj S1/6EpYtW6bMjQAzaZpmiwPJKioqZEdQTnFxMYYPHy47Rh83f7aGY/z48bYoltz8XvP5fEp+T7Sz goIC3HXXXfjWt76FESNGyI5DLsdSlUhNL7e3t89cuXKlq9ek1dfXf6Dr+mIhxBIAe2XnIeqPqiXJ uHHjUFpaKjuGaVS6SHHjhf+QIUNwxx134M4773TFVHQsTJgwAd/5zneUnyyLVlJSki2KnqKiImU/ v2VRZS/VXpxUvbyJEyfKjhAWN5eqnFI1T2FhIe69917cddddyMnJkR2HXIqlKpF6ftXS0rJw1apV p2QHUUVjY+MzPp+vyjCM7wA4IzsP0YVUKvfOJYTA0qVLoWnO/HGvUhnitlJ17NixePDBBzFmzBjZ UWwnPT0d9913H6ZMce65jKp+Jl7I4/GgrKxMdgxlFBYWKrclgts+WyNRUFCA7Oxs2THCUlpairi4 ONkxpGCpar6qqio8+OCDuP766xEfHy87DrmMM6+yiOyrXtf1O1evXs29RC/g9/u7AoHA94UQowH8 TnYeonOpVO5dKC8vD1OnTpUdwxQqFTdumaZKSEjALbfcgttvv135g4hU5vV68YUvfAFf+MIXlNnC IpZUem8ORLUSUSbVplQB93y2DoZdplSBs595br2BwVLVGpqmoaamBg899BBGjRolOw65CEtVIjUE hRDf0nX9HwHwKMPLaGxsPKjr+i2aps0BsEV2HiJA7VIVAK655hokJyfLjhFzKr3ubpimys/Px7e/ /W1MnjxZdhTHmDJlCu666y7HTdbYqXB387Lkc+Xn56Oqqkp2jIu44bN1MDRNs93hd259r2VmZsqO 4CpDhw7FnXfeiWXLltnqBh/ZF0tVIvk6hRBfamxs/HfZQeykoaFhnc/nmwjg7wAcl52H3E31L21J SUm47rrrZMeIOZaq1pk0aRLuv/9+XhyaoKKiAl//+teRkpIiO0rMqP6ZeK6MjAxkZWXJjiHd3Llz ldwHl5OqlzZixAikpqbKjhERt06F8+emHL17mPMgKzIbS1UiuU4ahrGgsbHxt7KD2JHf7+/RdX11 d3d3JYAfAAjKzkTuI4SwxSnXV155JQoLC2XHiCmVihunlqoejwc33XQTbr31Vtfuh2eFgoICfOMb 33DMgV8qvTfDUV5eLjuCVMOGDVN2f2SnfrZGy05L/3tlZ2cjPT1ddgzLDRkyRHYE1xo6dCjuuece LFiwQMmbRuQMLFWJ5Nnv8XimBwKB12QHsbuVK1d+quv6twFMBfC27DzkLgkJCbY4CKr30ConfalU aVLVidNUSUlJuOeeexy7J69qsrKycN999zniAtxOy/8B907Q9VJ1ShVgqXop8fHxGD16tOwYg+LG LQB4Q1IuIQTmz5+Pr33ta47cCovkU/8qkMiZtgCoqa+v3yk7iJPour5R1/XphmHcCeCI7DzkDioV ewMpKirCpEmTZMeIGZVee6dd+GdkZOCb3/ymaw8WkaW3WLXbst4L2W1Sdfjw4Y48MCwcWVlZqK6u lh2jX068YRWt0aNH23YfZpaqJEtFRQW+9a1vIScnR3YUchiWqkTWe7m9vX2mrusfyw7iUEYgEPhl e3t7JYDHAHTLDkTOplKxF46FCxfaLnN/VCpunFSqXnHFFfjmN7+J7Oxs2VFcKTs7G1/72tds/T5V 6b0Zjvj4eJSUlMiOIcXcuXOVXm3hpM/WWJkwYYLsCIM2YsQIpf+8mcGuBbgTZWRk4P777+c+qxRT 7vpEI5JMCPEHn893/apVq07JzuJ0q1atOqXr+nLDMEYDWCM7DzmX3cqDlJQUzJ8/X3aMmFCldDIM A52dnbJjxERZWRnuvfdeRx2aZEf5+fm4/fbbbTs9abfl/4A7J+gyMjKUL+hYqp4vJSXF1nsAJyYm oqioSHYMywgh4PV6ZcegcyQlJeFrX/saxo0bJzsKOQRLVSLr/DApKelmv9/Pb4cWCgQCu3VdXwzg JgD7ZOch51Gl2IvE9OnTMWzYMNkxoqbKa9/R0QHDMGTHiFpVVRXuvvtuWxy85gbl5eW4+eabZccY FLvdbALcWarOmTNH+alBLv8/37hx45T/bzYQN73XvF6vsvsVu5nH48GyZctw5ZVXyo5CDmDvT2Qi +2jUdf0Bv98fkh3ErXRdf9rn8400DOM7AM7IzkPOoUqxFwmPx4MlS5bIjhE1VYobJ0xSVVdX4447 7uBEjWImTpyIq6++WnaMiKny3oxEXl6eqya0hw4daos9tp3w+RpLEydOlB0ham4qVbn0X12apuGL X/wipk2bJjsK2RxLVSJzBYUQX9d1fYXsIAT4/f6uQCDw/e7u7pEAfgXA/qNlJJ0dl7kCZ/c1Gzt2 rOwYUVGl0Lb7JNXo0aOxbNky2y41d7qFCxfa7nR6O34uCiFsvaw6UrNnz7bFe97un6+xlJWVhcLC QtkxolZYWOiaU9hZqqpNCIGlS5fiqquukh2FbIylKpF5OgDc3NjY+CPZQeh8K1euPKTr+lcAzAOw VXYesjdVir3BWLx4sa1PpVXltbfzJNXIkSPx5S9/2RbliltpmobbbrsN6enpsqOEzY6TqgBsV14P 1pAhQ2yx7LWnpwc9PT2yYyjDCVOqwNkiyy0HBdn5O5ZbCCFw00032X7QgORhqUpkjhYhxLW6rj8t Owj1T9f1tT6fbwKAbwNokZ2H7EmVYm8w0tPTMWfOHNkxBk2V4saupeqIESNwxx13sFC1geTkZCxb tswWeyl6vV7bFgnl5eWu2P9w1qxZttjqw66frWYQQih/qFgk3LIFgF0/C91G0zQsW7YMJSUlsqOQ Dan/zYzIfppDodCsxsbGv8gOQgPz+/09uq7/wOPxVAD4CQDue0sRsXOpCpy9uM7KypIdI2Iej0eZ ZXV2XJ6al5fHPVRtpqSkBHPnzpUdY0B2XPrfKyUlBfn5+bJjmCo5Odk2S13t+NlqluLiYmRkZMiO ETOVlZWuuIGhyvcUGpjX68Wdd95py+/EJBdLVaLY+kDTtOlNTU2bZQehyNTX1x/Tdf1eAFMAvCU7 D9mH3UtVr9eLxYsXy44RMZVed7tNU2VkZOCee+5R6jWk8MybNw/FxcWyY1yWKhPkg+X0CbpZs2bZ puhhqfo5J02pAkBqaipyc3NlxzAdJ1Xtxefz4a677kJCQoLsKGQjLFWJYmdjKBSqaWho2C87CA2e rusbdV2fYRjGrQA+kp2H1Gf3AgEARo0aZbsiQaVC0E6lakpKCu655x5XnXLuJJqm4dZbb1V6wtju n4l2+yyMhM/nw9SpU2XHCJudPlvN5PF4UF1dLTtGzDn5vdbLLjcw6HPZ2dm4+eabZccgG2GpShQb L/p8vjlNTU1HZQehmDACgcBT7e3tYwA8BqBbdiBSl0rlXjSWLFliq701VXrd7XLh7/V68ZWvfAWZ mZmyo1AUsrKyMG/ePNkx+mX3UrW4uNixU0ozZ8601b+bXT5bzVZZWWnrbTX644ZSlZOq9lRdXY0Z M2bIjkE2wVKVKHr/5fP5rvf7/WdkB6HYWrVq1Sld15d7PJ5qAC/IzkNqsnuB0Cs7OxszZ86UHSNs Kr3udlmiunTpUuWXjlN4Zs+erezen8nJybIjRMXj8WD48OGyY8RcYmIipk+fLjtGROzy2Wo2py39 71VSUuL4SU6n//s52aJFi5CXlyc7BtkAS1Wi6PzQ5/Pd7vf7u2QHIfPU19fv1HX9OiHEEgB7Zech tag0MRmtefPmYciQIbJjhEWl172zs1N2hAHV1NTY5nAaGpimabjxxhuVPOhFpffmYDlxgm7GjBlK 3YwKBydVz76fqqqqZMcwhdfrRVlZmewYpuKkqn15vV7ceuuttlrFRXKwVCUaHAPAd3Vdf8Dv9/O0 eJdobGx8xufzVRmG8R0Ap2XnITU4oUDolZCQgEWLFsmOERaVXnfVp6nKy8tt89+VwldcXKzkPotO WKbstFI1ISHBVisRerFUBcaMGePoYs5p77ULOfm/nRvk5+dj/vz5smOQ4liqEkWuxzCMe3Rd98sO Qtbz+/1dgUDg+0KIMQB+KzsPyRUXF6f0gTGDMX78eJSWlsqOMSCVJq5ULlVTUlJw2223QdP4lc+J Fi1apNxFuxNK1czMTEftPTxt2jRb/ndR+bPVKhMnTpQdwVQsVUl1s2fP5jYAdFn8hk0UmXYAXwwE Aj+THYTkamxsPKjr+m0A5gLYIjsPyaHStGSsCCGwZMkS5Us4lV57VZf/a5qGL3/5y0hNTZUdhUwy dOhQ5Q7TUOm9GQ2nlD3x8fGoqamRHWNQ3D6pmpaW5vjl8dnZ2UhPT5cdwzTcU9X+NE3D0qVLldxu h9Sg9hUTkVpaDMO4Vtf1/yc7CKlD1/W1Pp9vIoC/A3Bcdh6yllPKgwvl5+crv/+mSq+9qtNUCxYs cPwFOQGzZs1S6v1gx4nIS6msrJQdISamTJmClJQU2TEGRdXPVquMHz/em5ITDgAAIABJREFUFUWO U25gXIqKk6rd3d0wDEN2DFspLS117IFxFD1nrVkkMokQ4lAwGLyuqalpq+wspB6/398DYPUjjzzy h2Aw+K8A7gZvWrmCSkvQY+3aa6/F5s2b0dbWJjvKJalUIqk4TVVaWoo5c+bIjkEW8Pl8mD59Ol55 5RXZUQA453Nx+PDh8Hg8CAaDsqMMmtfrxaxZs2THGDQVP1ut5JYSp6KiAuvXr5cdwxQqlqrPPPMM 1q9fDyEEEhMToWkaEhIS4PF4EB8fj7i4OCQmJiIlJQVDhgxBSkoKUlNTkZqa2vf3EhISZP9rWO7a a6/Fli1b0N3dLTsKKYalKtEADMPYGQwGr3vssccOyM5Caquvrz8G4L4VK1b8KBQK/QeAybIzkbmc Uh5cis/nw7XXXos//OEPsqNckirTcD09Pejp6ZEd4zzx8fG45ZZbXDHhRGfV1NTgzTffVKKEUuW9 Ga34+HgUFxdj7969sqMM2lVXXWXr7T/cPKk6bNgw1+zjOGLECNvfwOiPisv/e7csMgyj7z3W2toa 0WMkJSUhIyMDw4YNO++v9PR0x3736N1uZ926dbKjkGJYqhJd3oZQKLT4scce47JuCltDQ8M7Dzzw wMykpKT/A+CrsvOQeVSaljTDVVddhfXr1+Pw4cOyo1xElddehRLrQjfccIOjDtmhgfl8PkyZMgWv vvqq7CiOutlUWVlp21LV4/HYekoVUPPz1SqTJk2SHcEyiYmJKCoqwr59+2RHiTkVJ1W7urqifoz2 9nYcOnQIhw4dOu/vJyYmoqCgACUlJSguLkZJSYmjplpnz56N9evXu/qGD12My1OJ+rcmFArNZaFK g7Fq1apOXdfvBvAb2VnIPKoUe2ZReXN+VV571b5YV1ZW4sorr5QdgySYNm2a9APmepeTOoWd93qc PHkyhg4dKjtGVNxaqgohMG7cONkxLGXn99rlqDipGotStT8dHR348MMP8fLLL+NnP/sZvvvd72L1 6tVYt24djh07ZtrzWiUpKUm5wyFJPpaqRJcghPiZz+db2tTUFNlaCKLzGT6f76sANsgOQuZw0kRW f0pKSpTc102V4kali/64uDjcdNNNSpbgZL709HSMGTNGaobeffmcIi8vz5aHPHk8HsyePVt2jKiE QiFTyx+VlZWV2b4Qj5RTS1WnTqqGKxgM4sMPP8Rzzz2HpqYmfO9738O6detw+vRpyzLE2owZMxw1 fUvRY6lKdLH/1djYeM/fDh8iiorf7+/weDx3AFDztB+KiirFntkWLVqk3L+rKnlUKlUXLFiA9PR0 2TFIItkTNE670SSEQHl5uewYEZswYQIyMjJkx4hKR0eHa08oV/FGptkKCgqQnJwsO0bMub1UvVBz czOee+451NfX44knnsCBA/Y7sqR3ux2iXtxTlehzQQD367q+WnYQp1mxYkV6T0/PFUKIVMMwkoQQ 6UIIH4AEAJ2hUOiUpmmnABxuaWnZs3r1akcdq1hfX/9BbW3tCiHED2RnodhSpdgzW2pqKubNm4c/ /elPsqMAUGuJsSrL//Py8lBTUyM7BklWUlKCnJwcHD16VMrzO61UBc5uqfHee+/JjhE2TdMwZ84c 2TGiptINKyt5vV6MHTtWdgzL9d7A2LRpk+woMeW25f/hCgaD2Lx5MzZv3ozy8nJcc801KCoqkh0r bNOnT8frr7+OUCgkOwopgKUq0VltQohljY2Nz8gOYme1tbXlmqZNMQxjvBCizDCMUgAloVBoaO8+ b5dalnruHnBDhw7tqqur2wFgs2EYL4VCoTVO2Nc2OTn531tbW+8QQnCzQwdxYoHQnxkzZmDDhg1K 7IkVHx8vfe/IXipc+AshcOONNyrzmlglFAqhpaUFra2t6OjoQDAYRFdXF+Li4pCYmIikpCQkJSUh LS1NdlRLTZ48GWvWrJHy3E78TCwvL4cQwjZTk+PGjUNWVpbsGFFT5YaV1aqqqpS5aWi1iooKx5Wq Kk6qdnZ2yo5wnt27d2PPnj2YMGECFi9ebIstV9LT0zFy5Ehs375ddhRSAEtVIuA4gBsaGxvflh3E bv5Wot5kGMbVAKYAyOq96Iji4iMewDgA44QQd3g8nmBdXd3bQohfJSUl/crv99tyGb3f7w8tX778 20KINwBww0OHcNOFj8fjwZIlS/DTn/5UdhSlihsVStXq6mqUlJTIjmEqwzDQ3NyMPXv24MCBAzh2 7BhOnDiBnp6Bd+pJTExEXl4e8vPzUVxcjJEjRzp6P7QJEybg+eeflzJB4/P5LH9Os6WkpCA/P/+i U65VJIRwxJQqoMZnqwwTJ06UHUGaiooKW93ACIeKpaoKk6oXMgwD7777Lnbu3IlbbrkFo0aNkh1p QNOnT2epSgBYqhLt83g819XX138gO4id1NXVLQHwMIDpFnzx8QCYYRjGjLa2tkdra2t/IoT4vq7r h81+4lhramp6q66u7j8B3CE7C8WGm0pV4OwFz5gxY7B161apOVR63WVf+Hu9XixcuFBqBrMYhoE9 e/bgnXfewQcffIDW1sGdHdnR0YF9+/Zh3759eOONN+D1ejFixAhUV1dj3Lhx8Hqd9XV4yJAhKC8v x65duyx/bpVueMRSRUWFLUrVsWPHYtiwYbJjxIQbJ1V9Ph8qKytlx5AmNTUVubm5aG5ulh0lZlRb /h8KhcK6GSlLW1sbfvGLX6CmpgaLFy9W+uDNESNGYOjQoWhpaZEdhSRz1rdIosi8axjG4vr6+iOy g9hFXV1dPoAfA1gkKUKGEKIOwP11dXWP+ny+lX6/31ajDKFQ6J81TVsGQL1b1xQxpxYIl7N48WLs 2rUL3d3ytj5mqfq5mTNnOu5wqtbWVrz55pt45513cPLkyZg/fk9PD3bu3ImdO3fi+eefx8yZMzF1 6lRHTa+OGTOGpWoMVVRUYO3atbJjXJYQAnPnzpUdI2Zkf7bKUF1dDY/HIzuGVBUVFY4pVT0ej3Lb 8nR1ddliEvi1117DZ599hmXLlin7nhBCYOLEiXjllVdkRyHJ1HqXE1lECPFnALMDgQAL1TDV1tbO APAO5BWq50oB8GhbW9v2uro6W61za2pq2ieE+JXsHBQbKpV7VsnIyMCsWbOkZlCpuJE5TZWUlOSY pb7A2QmV5557Dg0NDXjppZdMKVQvdOrUKaxZswYNDQ3YsGGDLS42wzF69GgpF/NOXP4PAMXFxcqX 7lVVVcjLy5MdI2bcOKk6YcIE2RGkc9KkrmpTqgCk3hCP1ObNm/Hb3/5W6Z/LkyZNUnqalqzBUpXc 6CcnT568Xtf107KD2MXDDz98rRDiRQC5srNcoBTAi3V1df98yy23qHkb8xJCodCjANRde0NhU6nc s9Ls2bOlTkeqVGbLnKa6+uqrlXotBisYDGLt2rVoaGjAunXrpOz31tbWhv/+7//G6tWrcfy47c9G RHJyspR9dp36mejxeDB8+HDZMS5r3rx5siPElNsmVTMyMlBcXCw7hnTFxcVKlpGDoeJ+qqodUjWQ TZs24c9//rPsGP3KyspCfn6+7BgkGUtVcpMQgDpd1+9dvXq1fW7TSVZXVzfHMIw/AlD1SskDwF9W Vvb8Aw88MER2mHAEAoEPATwhOwdFR9M0x3zxj1RcXByuv/56ac+vUpEo68I/OTkZM2bMkPLcsfTx xx9j1apVeP7555W42Nu7dy++973vYfPmzbKjRE3GQR9OLVWBs8uSVVVZWYnCwkLZMWLKbaXqhAkT OPGGs/uEq34DI1wqfkdU8ZCqgaxduxYffvih7Bj9GjNmjOwIJBlLVXKLVgBf1HU9IDuInTz00EOj APwegNpr3gAYhjE/KSnplUceeSRbdpZwGIbxrwCCsnPQ4Dm5PAjHmDFjUF5eLuW5VXrtZS1RnTVr lvLLkS8nGAxizZo1+Pd//3fl9s/r7u7Gr3/9a7z44otKLzsciIz3p0rvzVhTuVR12pQq4L7l/1z6 /zmV32uRUHFS1Y6lqmEY+P3vf49gUM3LJpaqxFKV3OCwpmmzdF1/WnYQO/H7/Ykej+e3AIbKzhKB ScFg8NXa2lrVtim4SCAQ2A3g17Jz0OCpNC0py5IlS6QcIKDSay9jmiopKQlTp061/Hlj5fTp0/jx j3+MV199FaFQSHacSzIMAy+99BKefPJJZTMOZNiwYUhNTbX0OZ26pyoAZGZmIjMzU3aMi4wYMcKR y8bdNKlaWFiI7GxbzARYgqWqeVRYETIYx48fx1tvvSU7xiXl5OQgKytLdgySiKUqOd0mAFMaGhre kR3Ebtrb2xsAjJadYxCqhBDP+P1+O1zZcVrVxpw8kRWunJwcTJ8+3fLnVem1lzFNNWXKFNtOqX78 8cf44Q9/iH379smOEpb33nsPTz31lC0nVoUQlk+rOrlUBdQse+bPny87gincNKnKKdXzZWVlISMj Q3aMqHH5f2y99NJLaGtrkx3jklT82UDWYalKjmUYxjM+n69G1/WPZWexm7q6ugWGYfy97BxRmNze 3v6ffr9f6c84Xdd3Afij7Bw0OCpNS8o0f/58y6fhVHntDcOwfOrD4/FIKbJjYcuWLXj88cfR0tIi O0pE3n33Xfzxj/b8qLZ6b0JV3ptmUe3CubS0FKWlpbJjmMItk6qapmHcuHGyYyhHtffaYKg4qWrn UrW9vR1r166VHeOSZG2HRWpQunAgGiwhxMr9+/ff5Pf7z8jOYjcPPPDAECHE/wVg693yDcO4qbW1 dYXsHAPRNG2V7Aw0OE4vD8KVmJiIhQsXWv6cKujs7LR8gnH8+PFIS0uz9DljYePGjfj1r3+t7J5o A3nrrbewbt062TEidsUVV1j2XJqmKfPeNMvw4cOlbHnSHyfupdrLLaVqeXm55Tcm+6PSa+6EUpWT qrG3YcMGJf8dysrKlPrZQNZiqUpO0wPgG42Njf/w1FNP2fPKTbKkpKR/MAyjQHaOWBBC/PPy5cur Zee4nIaGhnUAtsjOQZFTaQm6bBMnTrR0WkqV117G8lQ7Tqm+9dZb+N3vfmfbvUl7vfDCC9i9e7fs GBHJycmx7P2SlJTk+NPLExISlNm/tKioyNHTUW5Z/q/K0v+TJ09i27ZtsmP0GTFihO1LKhUnVe26 p2qvjo4OvPvuu7JjXCQxMRH5+fmyY5AkLFXJSY4DuE7X9f+QHcSuli9fngPgH2TniKF4TdN+cd99 96n3reYcQghOq9qQ0yeyIiGEwA033GBZoaLKa2/1xUlBQQEKCwstfc5ovfXWW3j66adtuSfphUKh EJ588kmcPn1adpSwCSEs+zOjys0Os6kyQefkKVUZW6vIEB8fj9Gj1Ti+YNu2bTh8+LDsGH0SEhJQ VFQkO0ZUVCxVu7u7ZUeI2ptvvik7wiWpcsONrMdSlZxioxBikq7rL8sOYmcej+cfAaixBil2xg8d OvRe2SEuJykp6QkAn8rOQZFRpdhTRUFBAa666ipLnkuV197qSaqpU6da+nzR2rJli233Iu3P6dOn 8eSTT8qOEZGCAmsWn7BUtU5BQQEqKytlxzBNZ2en7SfbwzF69Ghllohv3bpVqVIVUOO9Fg1V/tue ywk3Kz755BMlD7tkqepeLFXJCX7q8/lqGhsbD8oOYmcPP/xwkWEYX5edwyT/5Pf7lT2S2O/3twH4 qewcFBlVij2VXHvttZac/q1KeWPl/nOJiYkYP368Zc8Xrb179+I3v/mNIyZUL7R792689957smOE LTc315LnUeV9abb8/HykpKRIzTBv3jxHb7Wg0t6eZlJl6f+ZM2dw4MABNDc3K/WZbfcbBypOqqq4 H+lgbN26VXaEi9h9spoGj6Uq2VmnEOI+Xdfv8fv97vj2Za6/A5AgO4RJ8tra2h6QHeJyNE17HAD3 AbYRtxQIkUhOTsY111xj6nN4vV54vV5TnyNcVl74jx07Vsmpl0s5ceIEfvnLX6Knp0d2FNM8++yz ttnzcdiwYZY8jxU3VFQghJC6l2lubi5GjRol7fmtYJf3VjRSUlKU2RN327ZtCIVCaG9vR0tLi+w4 fVS4gRENFX9mO6VU3b59u+wIFxk6dCivDVyKpSrZ1ccAZjc2Nv5YdhAn8Pv9XsMw7pKdw2TfuuWW W5Td8b6hoWE/gGdk56Dw8YvTpU2ZMgV5eXmmPb5KE8JWlqqqTDQNpKenB0888YTjS5EzZ87gueee kx0jLDk5OdA087/yu+kzUeYEndOnVAF3TKqOHz/ekvdlOM49oEqlLQBk38CIloqTqk5Y/g8An376 KY4cOSI7xkVycnJkRyAJ1PgkJ4qAYRiveDyeibquvy07i1O0tbVdD8DpRxYWlpWVXSc7xOVomsYD q2xEpXJPJZqmYenSpaZd9Kv0ultVHKalpaGsrMyS54rWmjVrcOjQIdkxLPHXv/4Vx48flx1jQF6v FxkZGaY/j5tK1fLycinFZk5ODsaOHWv581rNDaWqKjfKOjo6sGfPnr7/X6VSFbD3vqoqlqpOOKiq 17k3A1Rh1coQUgtLVbITA0Bg//7919TX1x+THcZhlD7IKYbulh3gchoaGtYC2C07B4VHpXJPNaWl pRg3bpwpj61ScWPVhf/48eNtMZm2bds2ZU/lNUMoFMIrr7wiO0ZY0tPTTX8Otyz/B84u3TZzIr8/ c+fOtcVnQbScPumenZ2NwsJC2TEAADt27EAw+PnuU6qVqrJuYMSCisv/nTKpCkDJw6o4qepOLFXJ Tu7Wdb3uqaee4r6TMfTII49kArhWdg4rGIax8MEHH1SnkbmYIYT4mewQFB6Vyj0VXX/99aYUzyq9 7lZd+FdXV1vyPNHo6OjA008/rdQhJ1Z47733bDGtakWpqtJ70wpWT9BlZmaadrNKNU4vVVWZUgUu PvCnublZUpJLS01NlXIDIxZUnFR1yp6qAHDw4EHlvnNwUtWdWKqSLRiG8Utd1/+v7BxO1NPTMxeA snuNxlhiXFzcTNkhLscwjF8CcO7pLg7CSdXLS01NxZw5c2L+uCq97lZMfKSlpaGgoMD054nWCy+8 gFOnTsmOYblQKIS//OUvsmMMiJOqsWf1vqpz5sxRZg9Oszl5+b8QQplStbu7Gx988MF5f+/kyZNo a2uTlOjS7LoFAEtVc3V2duLo0aOyY5yHpao7ueMnM9nd/o6ODqVPbrczIcR82RkstkB2gMvRdf2w YRj2OP3ExYQQSpV7qqqpqUFWVlZMH1Ol192KaapRo0Ypv/Tx0KFDePtt925zvmnTJuUvVDmpGnvF xcWWLe9NT0/HxIkTLXkuFTi5VC0uLrZkj+NwfPDBB5f87FJtWtWupSqX/5vvo48+kh3hPEOGDFHq eypZg6UqqS5oGMZXVq1a5b7xF+u4rVSdLjvAQLgFgPoSEhKUL7pU4PF4sGTJkpg+pkpfVq248B81 apTpzxENwzDw9NNPIxQKyY4iTWdnJ7Zs2SI7xmWlpKSY/hxuK1U9Hg9GjBhhyXPNnj0bHo9bFhU5 u1RVZUoVuHjpfy/V9lUtKSlRsqAcCCdVzadaqSqEUOamCVmHpSopTQjRGAgEXpOdw6mWL19eCsAe R0rHjrXr9QahpaXlTwA+kZ2D+qdSsae6ysrKmBaDKhU3Zl/4x8fHY/jw4aY+R7R27NiBgwcPyo4h 3caNG2VHuKzk5GTTn0Ol96ZVrJigS0tLw+TJk01/HpU4dU9Vj8ejzB7ZwWAQO3bsuOQ/U61U9Xg8 yv8svBTViuBQKISeHmftMHbsmHpnV6empsqOQBZjqUoqe+fkyZN+2SGcTNM0dW6XWyfrwQcfVPoW 4urVq7sB/FJ2DuqfG8uDaFx//fXwer0xeSyVCm2zL/zLysqUnk4zDAMvv/yy7BhK2LdvHz777DPZ MfplRanqtj1VAWtK1VmzZsXs89MunDqpWllZqcz75MMPP+z3Z5hqy/8B6/cwjgXVJlW7u7uVO9gp Wp9++qnsCBexYmUIqYWlKqmqDcAdfyuXyCSGYai9rtQkCQkJyt/u9ng83AJAYSoVe3aQmZmJWbNm xeSxVCq0zb7wt2pp8WDt2rULH3/8sewYSjAM46IDX1Ridqnq9XqVKxCskJmZiczMTNMePzU1FVdd dZVpj68qp06qqrT0f9u2bf3+s6NHjyo30WjHfVVV+0x02tJ/APjss88QDAZlxzgPS1X3YalKShJC 1Om6fuk1KRQzQogS2RlkCIVCQ2RnGEh9ff1OAG/IzkGXxlI1cnPmzMHQoUOjfhxVXvtgMIjubnPv +5WXl5v6+NHilOr5du/eLTtCv7xer6nTjird7LCamWXP1VdfrVwxYwUnTqomJiYqs0e2YRiXLVWD wSA++UStXajMvoFhBtWW/zvtkCrg7JYGJ0+elB3jPFz+7z4sVUlFzzU2Nj4uO4QbGIaRIzuDDEII NdZeDcAwDE6rKsrNBcJgxcXFYfHixVE/jiqlqtkX/SkpKRg2bJipzxGNQ4cOcS/VC+zevVvppZVm XuCrsqRZBrNK1eTkZEydOtWUx1adE0vVsWPHKrONw4EDB3D69OnL/hrV9lUF7DWtqmmaMv+9ezlx UhVQbwsATqq6D0tVUs0xwzC+BkDdqxIHEUKkyc4giS0aMSHEUzi7FQYpRpViz26qq6ujPmxCldfe 7OWpJSUlEEKY+hzRWL9+vewIymlra1NyL8JeZk48uvlG0/Dhw03Z+7impka5STerOHH5v12W/vdS 8bPMTqWqaoUq4NxSdaAbBFZjqeo+LFVJNfcFAoEjskO4iLpX7CYKhUJqbb7TD13XTwP4o+wcdDE3 FwjRWrp0aVQFhCqvvdmTVMXFxaY+fjS6urrw/vvvy46hJBWnu3qZWaq6eVI1ISEBRUVFMX3MpKQk TJs2LaaPaRddXV3K7ZEYrbS0NJSWlsqO0Wfr1q0D/hoVP8vMuoFhBhVviDhx+T+g3k0YLv93H5aq pJKf6Lr+tOwQLuPMW5YD8Hg8J2RnCJcQ4gnZGehiqkxL2tGwYcOiKgtUee3NLlVjXdLE0qZNmxy5 PDcWjhxR976wmaWqKu9LWWJ9MvnMmTNd+5o6sfgZP348NE2Ny+7Dhw+HtVy6ublZue1MEhISlL7h eC4V90J26qSqaqWqKjf/yTpqfLoTAXt8Pt+DskO4jWEYau1Cb5Genp7jsjOE6+TJk38GcEx2Djof vzBFZ8GCBYO6k69pGhISEkxIFDkzv8R7vV4UFhaa9vjR2rRpk+wIylK5VDVTcnKy7AhSxXJZcmJi ImbMmBGzx7Obtjbn7Xqk0tL/cKZUgbM3DlXbqxKwzxYAKk6qslS1hopbP5C5WKqSCnoA3OH3+8/I DuI2mqa5slSNj4+3TUm5evXqbgBPys5B53PrBFGsJCYm4rrrrov49yUkJCizz6iZk5rDhg1T9kt5 e3s79u/fLzuGstxaqrr9MzE/Pz9m++hNnz7d1TfunDYFn5eXh7y8PNkx+oSzn2ovFbcAsEupyklV 66h2I8YuW1RQ7LBUJRX8q67rb8sO4VJHZQeQ4Pijjz5qqzI5FAr9p+wMdD63FwixMGnSpIiXuKv0 upt54a/SBfiFdu3a5bj9DmPpzJkzyr4+Zt6QcHMJCJx9bcvLy6N+nPj4eMycOTMGiezLaaWqSlOq x48fj+jGj4qHVcXyBoaZWKpaR7UtQ1S9KU7mYalKUgkh1vt8vv8tO4eLfSY7gATvyQ4QqaampvUA dsvOQZ9ze4EQC0IILF26NKKiR6XX3a2l6vbt22VHUJphGDhzxn0Lb9x8UFWvWEzQTZs2zfVbKTip VBVCYPz48bJj9Al36X8vFSdVY3UDw2xc/m+dUCgkO8J5OKnqPixVSaZWTdO+4vf7e2QHcSvDMFx3 FWQYhu1K1b/5tewA9DmVJiYvZKdT2QsLCzF58uSwf71Kr7sbS9VQKIRdu3bJjqG806dPy45wSWZO 0Kp0w0OWioqKqKaB4+LicPXVV8cwkT2ptj9iNMrKypCWliY7Rp9Ilv4DapaqQOwPhjODipOqqk10 xopqB6oJIZQ5mI6swf/aJI0Q4sH6+voPZOdwuUzZAaxmGIYtt5rQNO0/Aaj1rcHFVCr3ztXV1YU1 a9agp8c+96oWLlwYdiGj0uvuxlK1ubnZUVNkZlF1UrW7u9u0x+akKpCSkhLVe3fKlCm2WNZsNid9 xqi09P+zzz7DRx99FPHvaW1tNSnR4JWXlyuzv3p/OKlqHdVKVYDTqm7DUpWkMAzjj42NjT+WnYMw TnYAi3VqmvaS7BCD0dDQsAfAetk56CxVp7La2trQ0tKCN954Q3aUsCUnJ2PBggVh/VqVXnezpqmS k5OVLagOHDggO4ItqFoKmXlBrdJ7U6bBbgHg9Xo5pfo3TplU9Xq9GDt2rOwYfbZt2zao8knFadWU lBTk5+fLjnFZKk6qslS1DvdVdReWqiTDEa/Xe6/sEG533333xQGYKjuHxf6k67qa6zLD84TsAHT2 i7Kqd6B7L0bXrl2r3GmolzNt2jTk5uYO+OvcMKmamanuAgKWquFRbX+3XmZOqrJUPWuwperkyZOV WiYuk6o3JSI1atQopX5mRbqfai8VD6sCYrOHsZlUnFR16vJ/FX/mqnqdQOZghU5WMwzDuLu+vv6Y 7CBWu+WWWzxXXHFFfnx8fBwAhEKhBE3TjjQ0NJyUkSctLe1aABkynluix2UHiEYoFPqtpmkrwc9u qVS6SLpQb6na3t6Ol19+GTfccIPkROHRNA1Lly7Fj370o8v+OpWKG7OmqbKyskx53FhgqRoeFS/w DMMwrVQVQij13pSppKQE8fHxEU2EeTwezJ4927xQNuOUUlWlpf+tra3Yt2/foH6vipOqwNlSde3a tbJj9EvFSVUzb6zR+ZxaYNOl8cKcrPZ/AoHAGtkhrFBbWztc07RrAMwzDGMMgFIA8edebIVCIdTV 1bUbhnEAwEZN094G8HpjY6PZJ80IIcQ/mvwcqnlf1/VXZIeIRlNERz1JAAAgAElEQVRT09GHH354 nWEY82VncTOVy4Nzp1PfeustzJgxAxkZ9rh3UlZWhnHjxl32oC2VCm2zLvxVLVXPnDmDkyel3AO0 HRVL1c7OTtNyxcfHcyrnbzweD4YPH44dO3aE/XsmTpyI9PR0E1PZixOW//t8PqUOU9q+ffug3/+q TqoWFxcjISFB2fJKxVJV1dcqWqq91j09PSywXYalKlnGMIydycnJtbJzmMnv9ye2tbXdZhjGN4UQ V4a5x0uSEGIkgJGGYdwOAHV1dR8KIZ4E8JvGxsYtsc5ZW1v7VQDTYv24KhNC/E844KCnUCj0pBCC papEKhV7Fzr3YjQYDOL555/Hl770JYmJIrN48WLs2LGj3ykvlV57s0pVVUvwo0ePyo5gGyru72Zm UaXyjSYZKisrwy5VNU3DnDlzTE5kL06YVK2urlbqRsO2bdsG/XuPHj2Knp4e5faI7L2BsX37dtlR LknF5f9O3VNVtdfaTttvUWxwT1WySrfH47nd7/c79VNG1NbWfqWtre1DAD8XQlwZ5eMNNwzjHw3D 2FxbW/tyXV1deKe4hGH58uVThBA/jNXj2YFhGOsaGxufkZ0jFrxe7x8A8PanRCoXCBd+kdu8ebOt lmynpaVdtmBQ5bU3DMO0C39V91VkqRq+hIQE2REuYuYJ3qoerCZLeXl52L92/PjxSu+jLIMTJlVV Wvrf2dmJ3bt3D/r3h0IhHDlyJIaJYkflfVVVm54EnDupylKVZGOpSpYwDMPf0NDwjuwcZlixYkVZ XV3dG0KIXwCI+VGUQoi5AP5cV1e3sa6u7ma/3z/o921tbe0iTdNeAqBGM2GNTq/X+w3ZIWKlvr7+ BICXZOdwM1WKvUu58GLUMAw899xzktIMzqxZs/pdAq/Ka9/V1WXaUmpVS9Vjx1y3FfqgqTRR3cvM izxV3peqyMrKCqso1TQNc+fOtSCRvdi9VE1PT0dxcbHsGH127tyJnp6eqB5D1X1VVdpi4UKqFX0A J1WtYvfPMIocS1Wywuv79+9vlB3CDLW1tdeFQqG/wpql9JMAPNXW1ra9trb2geXLl+eE+xsffvjh orq6uh8LIZ4FkGJeRCV9t76+fqfsELFkGMZvZWdwMxWn0Hpd6ovcvn37ItrfTzaPx4Prr7/+kv9M ldfezOWpQ4YMMe2xo8FSNXyq/Dk9l5mlKidVLxbOtOrYsWORnZ1tQRp7sfvy/4kTJ0IIITtGn2iW /vdStVTNyMhQdtJbxUlVp5aqqr3WLFXdR63NUchxhBCngsHgV5566qmg7CyxVltb+/8JIX4FwOpN kyqFED8QQvxbbW3tX4QQfxFCvK1p2j7DMI4BgKZp8T09PcVCiEmhUGihYRgLcf77fRuAVwEcxNmb K+UAlgBQ85vJ4L3o8/kcV+h3d3c/HR8f/x8A1LtydwGVp7L6+yL33HPPobKyEppmj3upVVVVGDly JHbuPP9+iCqvvVkX/UlJScpdHPQ6fvy47Ai2oeKk6qlTp0x7bFXelyqprKzE22+/3e8/F0JwSvUS gsGg7Q94UWnpf09Pz0U/RwdD1cOqgLNbALz11luyY1xEtZ/lhmFEPbGsKtUmVbn8331YqpKpDMP4 +6ampn2yc8Taww8/vNQwjF/A+kL1XN6/bQ0w1zAMBIOf99a9y1INwzj3bvkxwzB+CuAngUDgwwsf 7IEHHkhISkq6HUA9ACeMThwIhUK3+/1+9Y5hjtL3vve9ltra2j8LIW6QncWNVCxMevX3Re6TTz7B X//6V0yZMsXiRIO3ZMkS7Nmz57yLAFVee7OmEFJS1F1IcPr0adkRbEPFyc3PPvvMtMdmqXqx4cOH w+PxnPfd7FyjR49Gbm6uxanUZ/cp1cLCQqWmj3fv3h2TfTSbm5svvKZQRmVlpZKlqmpFX1dXl5KH KMZCcnKy7Ajn4aSq+9hjZIVsSQjxlK7rv5CdI9bq6uqqDMP4LwBq3YLs32cA6nw+X1EgEHjkUoUq AKxatapT1/WfejyeKgC/szZibAkhTgkhbmhqanLsySpCiCdlZ3ArlQuEy32Re/HFF2219CszMxM1 NTXn/T1VSlWzLvxVLOMAoLu721Z/dmTSNA2pqamyY1zEzFJV1T+3MiUkJPS7r6YQAvPmzbM4kT3Y vYxQaUoVALZu3RqTx+ns7MSJEydi8lix1nsDQzWqTao6+We4ajekOanqPixVyRRCiENdXV1fl50j 1vx+fzyAJ2Cfg542eL3eKl3XA36/P6wWoL6+/oSu67cCqANgx20b2g3D+EJjY+MW2UFM9v8A2Pvq w6ZUKfYu5XJf5E6fPo2//OUvFqaJ3ty5c/sOboqPj1fmwsltpeqZM2dkR7CNtLQ0JbfZcOOkquwl y/3tqzpy5Ejk58f8XNOIqLoM2M6TqpqmYfz48bJj9AmFQjHdT13VfVXj4+NRUlIiO8ZFWKpaR7Ub mSdPnpQdgSym3rc+cgLDMIyvrly58lPZQWKtra2tFoBat6H7t6a7u3v2o48+OpirCkPX9YBhGDcC aI11MBN1CiG+qOv6y7KDmE3X9dMA7HWsu0OoXKoONOXz6quv2moZd3x8PBYvXgxArdfdzD1VVdTa aqcfA3Klp6fLjnBJLS0tpj22qn9uP/74Y1P/vQfS38nksqdUQ6FQTPbZNIOdJ1XLy8uVmpjbt29f TD+7Zd+kuJyKigrZES6i2vL/WGwDoSqWqiQbS1Uyw/d1XX9RdohYW7FiRTqA5bJzhOk9n89328qV K6P6dhoIBJ4NhULzANjh2OfTABY3Nja6pmg0DOO3sjO4kaoFQigUGrDs6+rqwksvvWRRotiorq5G WVmZUq+72yZVWaqGT8VStaury9SbKSq9N8/V1taGffvkbeufn59/UclWUVGBK664QlKis7Zu3aps eWnnSVWnLv3vpeqkKqBmqcpJVeuodDMDYKnqRixVKda2+ny+R2SHMEMoFHoQwFDZOcLQoWnarX6/ PybrNZuamtYbhjEDwJ5YPJ5JDmuaNscNE6rnSk5O/hO4BYDlVJqYPFdHR0dYhxBs2LABx47Z4T7J WUIILF26VKnC0axCQrXJll69hx/SwDIzM2VHuMiJEydMPaBEpffmuVpbW6WWqkKIi7YAkD2lCgCv v/660j/H7Cg+Ph6jR4+WHaOPYRjYtm1bTB9T5VI1Ly9PuWlF1X6eO7VUjYuLQ0JCguwYfYLBIE6d OiU7BlmMpSrFUqcQ4vZw9+60E7/frwG4S3aOMDU2NDTEtAANBAK7PR7PdADqHa8JvO71eic3NDS8 IzuI1f5WnL8gO4fbqHoxGm7RFwqFsGbNGpPTxFZubi5mz54tO0Yfsy78vV6vKY9L1snLy5Md4SJm HzCj8qTq3r17pWY4d4KurKxM+t6PBw8exIEDB2z/c0w1o0ePVqpE++ijj2K+j/KpU6eU3V/7Ujcw ZFNtUtWpy/+HDlVr3qmlpcXUm5ikJpaqFEv/o7Gx8X3ZIczQ3t4+E4Dc9VrhOS2EWGnGA9fX1x9r b2+fA+A3Zjz+IAQBNPp8vnmD3DfWKX4vO4DbqFogRHIxun37dqkTXIMxcuRI2RH6uK1UFULIjmAb sg8guhQ3l6rHjx+XWgSVl5f3vX/mz58vLUev119/HYC6NwftOqnq9KX/vVSeVlVpCwCv16vcz02n TqpmZ2fLjnAemft4kzwsVSlW1vp8PlPKPBUYhrFUdoZwCCF+0tjYaNoRv6tWrer0+XxfNgzjnwHI XA+6ORQK1ei6vsLv9zvzW0KYurq6ngHg6tfASh6PR6lplHNFuu/ln/70J95NHySzpqlULVX55yQ8 Pp9PuakZADhy5Ihpj61pmrIFXWtrKwzDkHoDKTU1Fbm5uSguLsbw4f8/e3ceH1V57w/885yZhKwE AhECsi8RBURauSouVK3W29Ze2yoVq+1VL9cfdS2cMyj2dlqtJDMBtKhVtErLVbRYrSIgKIhlkUWW sgYCCYQlgaxkmSSznOf3Bwk3QJbZznmeM/N9v168WsPkPF+ynDPnc77P8wwTVgcAnDlz5lzYJmsQ bsVO1bS0NOm6JKM99b+V7JtVyRJkyvg+MVZD1UsuuUR0Ceepqoq5fbpJEChUJdFQ4/f7f+F0OmN5 0bUJogsIBmNssdFjOJ1O3e12/55zfgeACqPHu0A55/zxlJSUb+Xn58u4FIHpXnzxxRoAcbWWrEiy hgdA6B0+x44dw+7duw2qJrYZ1U1ls9kMOW6kZK1LNjJO/QeMDVWTkpKkCTIu1BrQie7Kz8nJkWIt 1Q0bNiAQCACAVGsQtmXFTtVx48ZBUeS5pS4rK0NFhTFvz2XuVE1NTZVmpoBsU/+B2A1Ve/fuLbqE 89AmVfFJnisAsSzO+bS5c+ceE12HUVrWUx0nuo4glObm5n5j1mBut3uV3+8fD+BzE4YrYYw5dF0f 4na75zudTr8JY1oG55yWADCJzKGqx+MJ+XM+++yzczfZJHhG3fjL2hEq2866shK9XmZ7dF3H6dOn DTu+rB2PwP+dE0Wvq3rttdciJydHaA1erxdbtmw599+yXsus2KkaL1P/AblDVQDCf89aUahqHtk6 VY283hJ5UahKIsI5f9ftdhveHSlSfX39IABWuKPcAMDUO/K5c+cec7lct3PO/xNAtOc7lDPGFjLG flBcXDw0Ly/PlZ+fH9r85jhht9s/BkBBswmsECCEorKyEps2bTKgmthm1I2/rss54UO2XZVlJdsU YAAoLy+H32/c5SElJcWwY0eCc37unFhWVhbW+TFaZFgSYtu2befOWzabTcrQB7Bep2rv3r1x6aWX ii7jPEaGqhUVFfD5fIYdP1KyrKsq4/T/WN2oSrY1VWV/8ECMQaEqiUSJz+f7legijMYY6ym6hmBw zkVtEsbdbvdCxthQxtijAE4F8Tk+ALsAfABgAefcBeA5zvmvOec/s9lsOSkpKX3z8vL+My8vb9mS JUuola4Ts2fPLuec/1N0HfFA1u4eIPygb/Xq1Za7kRUt3jpVU1NTpZ3iLYuEhAQMGCDffpZGr4Eo 64Om5ubmc134nHMcPXpUcEXicM7PbVAFyH0ds9q1aPz48aJLOE9VVZWhv/O6rku9rurAgQOl+PmW 8aFFLHaqZmRkSPVgz+v10pqqcUrOHRGIFeiKovyiZT3HmGaz2XrI2j10gUKRg7dskPWKqqpXMMb+ XwcvKwfgtNls78+ePdvY7YjjjKIoH3LObxZdR6yTNUAAwg9VGxoasHbtWnzve9+LckWxSdd1wzp1 ZL3WKIqC1NRUobuoy27IkCFSbjR27JixqzPJek68sDO1qKgIo0aNElSNWAUFBeetsSlD6NQRK03/ Z4zF1dT/VqWlpRg4cKDh44TDZrNh2LBhhm3UFSwZO1VjMVSVbcmd0tJSaR+OE2NRpyoJC+c8Pzc3 d63oOsyg67oVpv6DMSbLo7G69j7IOd9qs9mucLlcr1KgGn2c848AyJnIxBCZb0Yjmd66fv16nDlz JorVxK6mpibD3jTLPK2yV69eokuQmixr+V3I6FBVpi6httoLVeNV2y5VQO7rmJU6VQcNGoTMzEzR ZZzHjFBV9unNMiwBQJ2q5hg0aJDoEs4jcxc3MRaFqiQcO1NTU38juggTWWUdT5kTkRLO+Q9mz55d LrqQWOVyuU4C+Fp0HbFO1q4sILIOH5/Ph1WrVkWxmthlZCeVzGueybZuoEwYYxgzZozoMi4SCAQM D0CsEqqePHlS6t8vo5SVleHw4cPnfUzWUFXXdUt9j2TrUq2rq0NJSYnh48geHMkQqlKnqjlk61SV /YEDMQ6FqiRUTYyxnzudztg7M3dAUZRa0TUEg3Muy2PRvhd+gHM+Mz8/n7ZDNBhj7EPRNcS6bt26 iS6hQ5GGfdu2bZP+ZkkGRnZSydyl1a9fP9ElSGvw4MHIyMgQXcZFSktLDe9+ljWguzBU1XU9LtdV Xbdu3UWd9bJex5qbmy0zddZms2Hs2LGiyzjP3r17Tfn6lZaWSrtUDQBkZmaid+/eQmuQsVPVSg8s gpGYmIjs7GzRZZynrKxMdAlEEApVSUg45zPz8vLELlRjMsaYzB2g59hsNineJSuKcuGd9x632/2e kGLiDGPsH6JriHWx2qkKnN3MZPny5VGqJnYZGXzKfNPTv39/0SVIS7ZwpVVxcbHhY1ilUxUw5+sh k/r6euzcufOij8sahMv8UOlCOTk50v3smzH1Hzjb8VhZKfcqXqK7ValT1XgDBw6EosgTZXHOqTEh jsnzk0ikxxhb5Xa7/yi6DrPV19cfxdnd6qXGOZeijYhzPuSCD70BwBqtBxaXm5tbBMCcd9VxStab USCyNVVbHTx4EIWFQve8k56R0/9l3qSlT58+Ut4oiiZjx1qrC6d9G0HWB03tnQ/jbV3VTZs2we/3 X/RxWb9nMp//LiTb1P/GxkbDf77tdjuysrIwYsQIqR8AAuJDVRk7VWMtVJVt48GysrKY+xqT4Mm3 TSmRVSXn/D8Rh+HY/PnzmzVNOwjgCtG1dEbX9aGia3A6nSkej6dtqOrz+Xz/K6yg+PQxgNGii4hV st6M+v3+qE3zXbZsGZ544gkwxqJyvFhjZDdVba28q80oioKcnBzs3r1bdClSGTt2LNLS5NvPUtd1 HDlyxPBxZOvWa9XQcPFy+MeOHYPP55My8Ig2v9+PTZs2tft3sj4ctEqompSUJF2gs2/fPgQCgYiO kZycjO7du6N79+7IzMw896f1Yz179rTM+4Jhw4bBbre3+1DBDDKeY2QPwkN1+eWXiy7hPGY8xCTy olCVBIVz/t9utzueV1/eDclDVUVRhLfKNDU1jUKbDnjO+bp58+ZVCSwpHn0CYJboImKVrKFqNLpU W5WWlmLHjh0YP3581I4ZS4y88a+rqzPs2NFwxRVXUKh6gYkTJ4ouoV0nTpwwJaSy0jkxEAjg2LFj GDpU+DNow+3cubPD84msoapVpv+PGTNGutCsq6n/NpsNqampSE9PR69evc6Fpa3/3atXL2l/LsKR mJiIQYMGCQu6ZJzVEUtdlP369UNmZqboMs4Tb8vLkPNRqEq6xBhb6HK5/i66DsG+APAz0UV0hnN+ AwAGgd3EgUBgTNun2IqiLBNVS7xyuVxbNU07CUCK5SBijaw3HdEOT1auXImxY8fCbqe3CRcystuj oaEBuq5LtU5YWzk5OVAURepNSsw0cOBADBgwQHQZ7TJrGQ9ZQ9WOzolFRUVxEaquX7++w7+TdaMq q4Sqsk3993q9OH78OLKzs9GjRw/07NkTPXr0OPenZ8+eSE9Pt0yXabTk5OQIC1VlC90558K6do0g W5cq5zzulpch56O7JdKVYo/H84ToIkTTdX2poig65F6H+BKHwzE2Ly/vX6IKYIxd2/a//X7/Z6Jq iWOcc76UMfbfoguJRfESqtbU1GDDhg246aabonrcWGDkjT/nHHV1dVLuJA+cneo9dOhQHDp0SHQp UrjhhhtEl9ChgoICU8ax0vR/ID66iQ4fPtzphinxch0zQkZGhnShfGJiImbNoglKFxo5cqSwzTdl C1W9Xi84j50V/EaPlmuVs1OnTkV1xhixHpkDIiJegHN+//z58+Vd5M0k+fn5pwF0/NhfEpzz+wSX cF2b/396zpw5+4VVEt8+EV1ArJK1K8uIN3NffvklvUlsh9E3/rLvqnzNNdeILkEK2dnZGDNmjOgy 2uXxeHDs2DHDx7Hb7dKFB606OncdPXo04rUnZbdu3bpO/17WUNUKnapXXXVV3HV8WlXfvn2Rnp4u ZGzZpv/H0tT/gQMHIjs7W3QZ56H1VAmFqqRDjLHZbrd7g+g6JPKS6AKCcJ/T6RRyJX/yySd7AGg7 H+OfiMONzWSQmpq6BkC96DpiDWNM2mmTRoSfjY2NWLNmTdSPa3VG3/hXVFQYevxIXXHFFdKtZSbC 9773PWnDlYKCAlOWaJD1IRPQ8TnR5/Ph+PHjJldjnoqKii67lClUDZ9sU/9JxxhjGDFihJCxZXvY FEubVF133XVdv8hk8TADgnSOQlXSLs751urq6t+LrkMmKSkp/wBwUHQdXejX2Nj4nyIGttvt30Gb cwpjbKuIOgjgdDqbGGMrRdcRa7p16yZtiGJU9+TGjRtRVUV7zbUV76Gqoihx3606ePBgXHbZZaLL 6ND+/eZMEpF16n8gEOg0RIjlG+ANGzZ0Oc2XQtXwZGdno2/fvqLLICHIyckRMi51qhojNTVVuhki tJ4qAShUJe3zMMbuX7BggU90ITJxOp06Y+w3ouvoCuf8GafTafqdjqIod7T9b13XO9+KlBhK13Va AiDKZO7KMipUDQQC+OwzWhq5LaOn/5eXlxt6/GiYMGGCtF3bRmOM4fvf/77oMjrk8/lMW09V1nNi Y2Njp8FirN4ANzY24ptvvunydbKGqrKvqUpdqtYzYsQIIQ/DZetUjZVQ9eqrr5ZuA9UjR450uIY3 iR8UqpKLMMZmuFyuA6LrkFFeXt7fIP96lQM9Hs9sAeN+74L/NmfrYdIuu92+DEDsbPUpAVlvRAFj pv+32rVrV0xPlw2V0d1UnW0wI4vk5GTcfPPNossQ4rrrrsPAgQNFl9Gh/fv3m3YDLWuo2tX58OjR o6Ysj2C2LVu2BPW9l/WBiMyhKmMM48aNE10GCVFqair69+9v+rgUqkaf3W6Xcur/3r17RZdAJECh KrnQsry8vNdEFyEzn883DcBp0XV04VFVVS8MOQ2jado1AAa0/Ziu69VmjU8uNnv27EoAtCZyFMka IADG3oxyzvHpp58adnyrMfrGv7q62hJdDzfccAN69+4tugxT9ejRA7fffrvoMjq1a9cu08aSdfp/ V78/TU1Nlnh4EQpd17Fx48YuXyfz2uAyT/8fOnQoMjIyRJdBwjBy5EjTx5Rt+n8srKk6ceJEKX8H KVQlAIWq5Hyn7Xb7Q6DNhTo1b968E7qu3wlA3kfqgMIY+5uqquNNGu+idVy9sfBY1OI45x+LriGW yNypanTQV1xcbNo6jbIz4+bk5MmTho8RKZvNhjvuuKPrF8aQu+66S9pACjgbSpk19R+Q90FTMOfD WFsCYM+ePaipqenydUlJSdKuDS5zqEpT/61LRKhKnarRlZycjEmTJoku4yInTpygfQcIAApVSRuM sYdfeOGFU6LrsIL8/PzNjLF7Acj86C+dMbbS4XDcaOQgjz32WHcAky/8eFJSUh8jxyVBkX2pCkuJ 51AVAFasWBGTU2ZD4fP5EAgEDB/HCqEqAIwePVrYRiBmmzhxotSbUwHA7t274fOZtxy+rKFqMJ3e sbZZ1fr164N6Xbxfx8KRkJAg3eY4JHgDBw40/eeeQtXomjRpkpQzI/bsoe1DyFkUqpJWC/Ly8paK LsJK8vLyPuacfxeAyEdUzQAqGGO1Hfx9b87555qmPep0Og35fU9OTn4OwEXzMTjno40YjwTP7XYf BkDzUqJE1gABMHZN1VanTp0KahOUWGbWTb+VAp977rkH6enpossw1KWXXir15lStzP79lPWcGMz5 sLi4uNPNrKykpKQER48eDeq1snZac86l7VQdNWqU1GE06ZzNZsPw4cNNHVO26f9WDlUzMzMxceJE 0WW0i6b+k1YUqhIAKNR1/deii7Ait9u9TlGUfwOwzqQhjwD4A2Psez6fr5fL5UpyuVxZeXl5GTU1 NYm6rl/JOf9PAB8AqG/5nEQA8xsaGjapqvqDKIarTNO0RwH8qr2/VBTlh1Eah0SAMUZLAESJzDdV ZoV9q1atsvSb80iZddN/5MgRywQ+aWlpmDx5srRTiiOVnJyM++67DzabTXQpnSovLw86WIsWGTuH gOBCVY/Hg1OnYmNyVrBdqoC81zGfzyftTAia+m99Zi4BoCiKdNcLq75vUxQFkydPlq7zFzh7zY2V awiJnF10AUQ4P4Cf5+fny78rhqRyc3MPAbjJ4XA8wjn/HYCsKA/RDOAjRVHeSEpKWut0Ott917lg wQIfgF0tfxZqmpbOOf8lY+zXAAYzxq4GsNTj8ZSqqvqhzWb7oKGh4ev58+eHtITB9OnTe9vt9rs4 51MBfLuTl97761//+rdz5849FsrxSXQFAoFPFEV5RnQdsUDWm1HOuWmhal1dHf75z3/i1ltvNWU8 2Zj1dW5sbERpaSn69etnyniRGjFiBCZNmoQvv/xSdClRZbPZMGXKFGRmZooupUtbt241PYi3cqcq cLZbtW/fvgZXY6yamhrs3r076NfLeh2Tdep/SkpK3CxxEsvMDFVl61IFrLtR1Y033ojBgweLLqNd 27dvF10CkQiFqnGOc/6c2+3eIrqOGMDz8vL+9NRTTy1MTEz8Jef8CQCRvAvzA/iac/6RruuL5syZ UxHqAVwuVx2A+U6n8w2PxzMdwCwAyQCyGWO/0nX9V8nJyX5N0/Zxzncyxg4BKNd1/RSAOgBQFCWN c95NUZRBnPORAEYBmMA5D+bckWS32+cCuDvU2kn0pKWlbfV4PKUAskXXYnWyBgjNzc2mdvh89dVX uOaaa5CWlmbamLIwc3rq4cOHLROqAsBtt92G8vLymFljjDGGe+65R8gmJ6Hy+XzYunWr6ePKek4M NlQtKirCtddea3A1xtq4cWNI539ZQ1VZp/6PHTtWuq5DErqePXsiKysL5eXlho8lY1elFTtV+/Xr h9tuu010Ge3SdV3INZfIi0LV+PZ1amrqC6KLiCXz5s1rBPAnAH9yOBxXcM7vBHATgMsBDOjkU6s4 57sYY7sYYxsYY5/n5uZWR6Mmp9PZBOAPDofjEwDvcc4vb/PXdgBjGWNjWz+gKOevDsAYi6T75acO h+NXeXl5r4R7ABIZp9Opa5q2FMBU0bVYnaw3o2asp9qW1+vF559/jrvuusvUcWVg5o3/gQMHcMMN N5g2XqQURcG9996LN99801Jrwnbkhz/8IcaNGye6jKDs2D3FFPcAACAASURBVLHD9PMAYO3p/4C1 1i5uj9frxZYtofVFyHodk7VTdfz48aJLIFEycuRIClUtIiUlBVOmTJH2gcb+/ftRV1cnugwiEQpV 41c95/x+p9PpF11IrMrLy9uLs5sEzQaAJ598skdSUlJvABm6rncH0KAoShWAymgFqF3Us/uxxx67 Nikp6WPG2CSjx2vFOX9RVdUyt9v9d7PGJOfjnH/MGKNQNUJ0M/p/tmzZguuvvx5ZWdFe7URuZoaq RUVFaGpqkvbnrj12ux2/+MUv8Nprr6GsrEx0OWFhjOGOO+6QdmOM9mzYsEHIuFbvVK2rq0NFRQV6 9+5tcEXG2LZtW8jnf1nPJzJ2qmZmZmLgwIGiyyBRMnLkSFPOlTJO/7dSqNr6PkLm95ehPswisY9C 1fj1ZMvO4MQkL774Yg2AGpE1zJ8/v9bpdN7h8XiWA/iOScPaGWPvqqr6I7fb/ZlJY5I2UlNT13g8 nnoA8TdfO4qsHiBEk67rWLFiBR544AHTxxbJzBv/QCCAgwcPYuzYsV2/WCLJycl4+OGH8ec//xml paWiywmJoij4yU9+gm9/u7PlwuVSWFgoLMCW9ZzY0BD8NgFFRUWWDFU55yFtUNWqW7duBlQTORlD 1auuuipmN+CLR0OHDoXdboffb2w/EXWqho8xhp/97GfSrqMKnF3H+uDBg6LLIJKJ1i7gxEIYYx+5 XK4/i66DiOF0Opu8Xu+PAew3cdhExtgHmqZdY+KYpIXT6WxijK0UXYfVydrhI2ra5N69ey0/fTZU Zt/479u3z9TxoiU9PR2PPPIIhg4dKrqUoCUkJOCBBx6wVKAKQNjmYN26dZN2amYo50SrnsMKCgpQ URHycvvSBuEyTv+/6qqrRJdAoigxMdGUsI5C1fAwxvCjH/0IY8aMEV1Kp7Zu3WrqPgbEGihUjT+l fr+fpgHHuRdffLGGMXYvADOvsqkAPp0+ffogE8ckLXRd/0R0DVZHN6MXW758uek7jotk9td67969 lrgZak9SUhIeeughjB49WnQpXerTpw8ee+wxjBo1SnQpISkpKcHhw2ImHcl6PvR6vSF1olk1VF23 bl1Yn0cPB4Nz6aWXSj39mITHjI0HZZz+39zcLLqETtlsNkyePFn6jQNpgyrSEQpV4wvnnD8Yzk7y JPbk5eX9izGWa/KwvWw221+cTiede0ym6/pyAAHRdViZrDejIqb/tyopKcHu3buFjW82s2/8vV6v ZbtVgbNro/385z/HnXfeCbtdzhWnxo8fj0cffRR9+vQRXUrI1qxZI2xsWTepCmXqPwBUV1ejutrw Ze2jqqysDEVFRWF9rqzXMdmm/1OXamyK11BV5oezqampePDBBy3xO7dr1y6cOXNGdBlEQhRsxJdX aE1L0hbnPB+A2SH7TR6P53GTx4x7LQ9TaGX1MCUkJMTEVFcjfPbZZwgE4iOvF9HtsX37dtPHjCbG GCZOnIhp06ZJ1fmVmZmJX/7yl5g8ebKUN8FdOXHiBAoKCoSNL2unajgPmazWrbpu3bqwZwhQqNo1 RVEwbtw40WUQA/Tt2xfdu3c3dAwZHyDKGqqOGDECTzzxBIYPHy66lC5xzoUtt0PkR6Fq/Njv8/k0 0UUQubhcrjoArwgYepamaekCxo1rnPPlomuwKlkDBEB8qFpZWYlNmzYJrcEsIr7WhYWFMdEZ0b9/ fzz++OO45ZZbhK45l5CQgNtuuw3Tp0+33HT/tlasWCF06Q1Zz4mxHqrW19dj586dYX++rBtVib6O tTVixAikpdG+nrGIMWZ4t6qMD+lkm/6fkpKCn/zkJ3jooYeQkZEhupyg7Nu3T9imkER+FKrGBy/n /Ofz5s2T5x0LkQbnfBEAs+/MegOgblWT2Wy2ZaJrsCpZu3sAOW5GV69eLVWnkVFE/Bt1XcfmzZtN H9cIiYmJuO2226CqKr71rW+ZurN2SkoKbr75ZjgcDtxyyy1SdhMF69ChQygsLBRag6zT/8MJVcOd Si/Cpk2bItq9XNZrmUzXDytMQybhMzpUlW2jKs55ROeMaLLZbJg4cSJUVcWECRNMfQ8QKZHL7RD5 UagaBxhjv3W73daeP0gM43a7DwPYI2DoBwFY52oaA3Jzc3cCOCm6DiuStSsLELumaquGhgasXbtW dBmGE3Xjv3nzZmluiqIhIyMD99xzD1RVxU033YTU1FRDxmGMYeDAgbjrrrvwzDPP4Pbbb0d6urUn SXDOsWLFCtFlSHtODOd8WFFRgbq6OgOqiS6/34+vv/46omNQqNq5xMREXHHFFaLLIAYaPny4oWGe bJ2qXq9X+Iai3bp1ww033ACHw4E777xT2odyHTlw4ACOHz8uugwiMes+pifBWldUVOQWXQSR3mYA Y0wec6imaVe7XC5a59M8HMByAA+LLsRqZL0RBeToVAWA9evX49prr7XMVK5wiLrxr6+vx+7du2Ou g6pXr17493//d9x+++3Yu3cvCgoKcOjQoYiWO0hKSsKAAQMwatQojB49OuZ+Hnfs2CHFzV0sharA 2W7VK6+8MsrVRNfOnTtRX18f9uczxqS9lslyHbviiiukC8VIdKWmpuLSSy/FsWPHDDm+bJ2qItdT HTBgAK6++mqMGzdO2qVHgkFdqqQrFKrGtjOKojywZMmS+NhBhISNMbZfxFNMxtgk0OZJptJ1fbmi KBSqhkjWG1FAjk5VAPD5fFi1ahXuvvtu0aUYQtd1oeuSffXVVxg3bpylpssFy2azYezYsRg7diwA oLy8HEePHkVlZSWqqqpQVVV1Xpjk8/mQlJSE9PR0ZGRkoHv37ujTpw8GDBiArKysmPwaAWfXxZOh SxWIren/wNl1VWUPVdevXx/R5yckJEBR5JykKEun6vjx40WXQEwwcuRIClUNYLPZMGjQIFx22WUY M2YMMjMzTRvbKIcPH8aRI0dEl0EkR6FqDGOMPZqbm3tEdB1EfpzzShHj6rou9x1MDEpLS/vc4/E0 A7DuI2MBZO3KAuTp8AGAbdu24frrr0d2drboUqKuublZ6BS60tJS7N+/H5dffrmwGsySlZWFrKws 0WVIZ/Xq1aitrRVdBgB5z4kNDQ1hfZ7sm1UdPnwYpaWlER1D5oeDMlzH0tPTLbELOYncyJEjsXr1 akOOLVuns5EPgzMzM9GvXz/069cP/fv3x9ChQ6X790eCc45PP/1UdBnEAihUjV3v5+Xl/a/oIog1 cM4rRXT2MMaGmD5onHM6nfUOh2Md5/xW0bVYiaw3o4FAQKpdXTnnWL58OR566CHRpUSdDJ1Uq1ev jotQlVysvLw84k7FaJI1VA23U/XUqVPweDzSduCuW7cu4mPIeh3z+/1SrBl95ZVXStvJS6Jr4MCB SEpKMuS6LlunKuccycnJ4JyH9O9ljCEtLQ3p6eno3r37eX+ysrKQnZ0t7XUgWrZu3YqTJ2krCtI1 ClVjEGPshNfrnSa6DmIdnPNyQdMlY/tqLK8VAChUDYGsbxxl6O650MGDB1FYWIgRI0aILiWqZPha Hz9+HAUFBbjssstEl0JMxDnHBx98gEBAntWcZA0fww1VOecoLi6WcpOiiooKFBQURHwcWUNVGR5Y AYi5NatJxxRFwfDhw7FnT/T36ZWtU7N///5wOp3n/tvv98Pn88Hr9Z53TUlMTITNZpN67WUzNTU1 YeXKlaLLIBZBj+Nij845/8W8efOqRBdCrIMxViG6BmIezvky0TVYjaxvMGVZT/VCy5YtE77bbLTJ cuO/bNky6Louugxioo0bN0q3ppusD5rCnf4PyLsEwPr166NyPpX1OibDA6usrCxceumlossgJho5 cqQhx5WtU/VCdrsdycnJyMjIQGZm5rk/aWlpSE5OlvY8YbYvvvgioo0BSXyhUDX2vOhyuYxZJIbE rNTU1FM4uzO82cRvYRyHXC7XAQCHRNdhJbK+yZThZrQ9paWl2LFjh+gyokqWUPX06dPYunWr6DKI Saqrq/HZZ5+JLuMisoaqkZwTi4qKolhJdDQ2NmLbtm1RORZdxzpGXaqh45yjtrYWR44cwc6dO7Fm zRp89NFHlnnoZ1SoKlunKgldRUUFNm7cKLoMYiE0/T+27G5sbHxGdBHEepxOZ72maQUARpk5LmOs 0MzxyHmWA3hcdBFWEYsBgtFWrlyJsWPHwm6PjbcaMn2tV61ahXHjxqFbN9pvLpZxzrFkyRJTd28O hqIoUgZ0uq5H9PCjtLQUTU1NUv3btmzZErXvv0z/rrZEP7BijFGo2g5d11FbW4uamhpUVVWhuroa 1dXVqKmpOfe/7a2FO378eAwaNEhAxaHp2bMnsrKyUF5eHtXjyt6pSrq2dOlSqZbbIfKLjTsdAgDN uq7/fP78+fLsWEKsZgNMDlUBUFe1IIyx5ZxzClWDJOvNqKzT/wGgpqYGGzZswE033SS6lKgQfePf Vn19PVatWoUf/vCHokshBvrqq69w+PBh0WVcJCkpCYLWYe9UY2NjRNPkdV3H0aNHkZOTE8Wqwqfr elS7pWS9jol+YDVo0CBkZmYKrUGUxsZGVFVVobKyElVVVef+1NbWoqqqCj6fL+RjFhYWWiJUBc52 q0Y7VKVOVWvbt29fVNawJvGFQtUYwRh7Jj8/f5foOoh1cc43MMYeNnHIM4FAYK2J45E2PB7P2uTk 5AYAqaJrsQJZO1VlDlUB4Msvv8TVV18t7aY2oRB943+hDRs2YOzYsZa5eSWhOXHiBFatWiW6jHbF 8vmwqKhImlB19+7dqKmpidrxZA1VRT+witUu1UAgAI/Hg9ra2otC08rKStTU1BgyVb+wsBC33mqN vVBHjhyJDRs2RPWY1KlqXR6PB3//+99Fl0EsiELV2PDP5OTkF0UXQazNbrcvDQQCzQBMmU/KOX89 Pz8//B0lSETmz5/frKrqGsYYtboFgW5Gw9PY2Ig1a9bgBz/4gehSItbcLNdEEM45PvroIzz++ONQ FFoiP5Y0Nzdj8eLF0k4/lDVUjWSTqlYybVa1fv36qB5P1uVCRF7HbDYbxo4dK2z8SAQCgXNT81un 5FdXV5/779raWiHrmx47dgzNzc3S/ry1NWzYMNjt9naXMQgXharW9fHHH9PmVCQsFKpaXzWA+5xO pzVWBSfSmj17dqWmaf8AMNmE4aoBzDNhHNIJRVGWcc4pVA2CrKGqbN2T7dm4cSOuu+46y0+vlDHA Li0txZdffolbbrlFdCkkSjjn+OCDD6I+JTWaZO08j8b58Pjx4/D5fMKDkZKSEpSUlET1mLJex0Se W3NycqT9eW51+vRpFBcXnxecVldXo7a2NqLlLowSCARQVFSEUaPMXlEsdAkJCRgyZAgKC6O3xQNN /7emvXv3YufOnaLLIBZFrQ0Wxzn/fy6Xi3ZQJ1GhKMoCM8bhnP/a7XaXmTEW6ZjP51suugYrsNls 0r5JjkZnltECgYCUu5eHStYA+4svvsDRo0dFl0GiZN26ddi1S+7VnGQNoaJxPgwEAlEPM8Oxbt26 qB9T1lBV5Ll1/PjxwsYO1j/+8Q98+OGHWLNmDXbs2IEjR47gzJkzUgaqraIZUhpt5MiRUTsWYyxm NueMJ1VVVTTtn0SEQlVrW+R2u98XXQSJHbm5uWsYY18YOQbn/BW3273QyDFIcObOnXsMgNx37xKQ 9UYUkLN7sj27du3C8ePWfv4n69da13W8//770i1PQEJXVFSEFStWiC6jS7KeE6O1xnRRUVFUjhOu mpoa7NmzJ+rHlfX7JurcmpSUJH03ZV1dnVRLUgTr4MGDoksIWjRDVbvdLuUmfqRjTU1NePvtty3R pEDkRaGqdQUURZkvuggSe3w+34MAjOoi/XNqairtOC+XZaILkJ2sN6KA/BtVteKcY9kya/+oydqp CgCVlZX46KOPRJdBIlBZWYlFixYJWQMxVLJ2qsZKqLpx40ZDfg5kvZaJOreOGTNG+q7C3bt3W+Kc cKHy8nKcOXNGdBlB6dOnDzIyMqJyLFlnNZH26bqOd999F6dPnxZdCrE4ClWty6br+teqqi7SNE2O bUpJTJg7d+4xRVEmAtgSxcN6OeePu1yuh2n937Nmzpw5WFXVf4iug3Muf1uUYLJuygLIHfRdqKio CPv37xddRthk7VRttWPHjqjvYkzM0djYiLffftsyD0lkPSdG6+t37NixqG5cEwqv14stW6L59uv/ yBqqijq3XnXVVULGDcW//vUv0SWEzSpLADDGMGLEiKgcS/RazCQ0n376KQ4cOCC6DBIDKFS1Nhtj 7OcA9mqa9r9PP/30ZaILImJNmzatr6ZpCzRNK9U07fSMGTM+/f3vf39FqMfJzc0tSklJuZZzPgVA JAt7cQAfKIpyhdvtps7qFpqm/VXX9WLG2I80TfM/9dRTwu5Qz5w5swmANdoJBJE1QACs06naasWK FZbsugHkD1UBYNmyZcK77EhoAoEAFi1aJPXGVBeS9ZwYrfOhz+cTtlzJtm3bDHtYRqHq/+nRoweG Dh1q+rihqKmpsfR62VYJVYHoLQFAoao1cM7x6aef0oNoEjVyz3kgwbIBuC8QCNyrqup7jLHnXS6X dduBWmia9l3O+d8A/M3tdv+36Hqs4NVXXy0DMBUANE1bYLPZflFfX/99TdNaXxLgnFczxtYCeKqz Tc5aOkoXA1g8ffr0y+12+2TO+Q0A/g1AZ3P/dMZYAef875zzRW632zrvqgzmdDoVj8dTBiCrzYdt CQkJNQC6iahpwYIFPofDsYZzfpeI8a1A1htRwFqdqgBw6tQpfPPNN5gwYYLoUkJmhVA1EAjgnXfe waOPPoqePXuKLod0gXOO999/H4cPHxZdSkhiffo/cLazfvDgwVE7XjA451i/fr1hx5f1WibiOnbl lVdKv/bl7t27pd6MqiuHDh0C51z6rzMAjBgxAoqiRPzQl6b/y49zjk8++QQbN24UXQqJIRSqxhaF MTYFwM80TXs/EAg8P2fOnH2iiwqXy+X6XFXVLxljUzVNmwqgmTHmzMvLyxVdmxW4XK6paAlYVVWd DeBJxlgSY6w3gJ8C+GlL2MoZY7Wc8380Njb+9/z58y/a7aTl5+i3ADB16tSEjIyMKwD0A9CbMZbF GGvSdb2KMVbW2Ni4bf78+bUm/TMtY9asWf0bGxtL0P4MgURVVZ9zu92/MbuuFisBUKjaAVm7spqb mxEIBESXEbKVK1fiyiuvRLduQp4jhMXn8wmbDhyq+vp6vPHGG5g2bRrS0tJEl0M6wDnHRx99ZMnp vbKGqtHcaETE5kD79+9HRUWFIce22+3Srh8qIlQdP3686WOGaufOnaJLiEh9fT3KysqQnZ0tupQu paSkoH///jh27FhEx6FQVW6cc3z88cf4+uuvRZdCYoycV1cSKQXAvTabbbKmacsVRfmf3NzcHaKL Cofb7f6xqqpPAZjLGOvGOZ+tadpsAEfr6+uvaenMjLq7777btmTJEuulFR1wu91PA3gaAGbMmDFH UZTHALTOUWGc8wwAv0hOTv5FS9DqZYztUhTlvtmzZ5+3heeCBQt8AHa2/CFBmDVr1v0+n++vnb2G MaYCEBKqMsZWWrkbwmiyhn9W61JtVV9fj3Xr1uHWW28VXUrQrNCl2lZlZSX++te/4r/+679oOqKk PvvsM2zevFl0GWGJh47HI0eOQNd1KIp5K6XFY5eqruvw+XymjpmdnY2+ffuaOmaoqqqqcOLECdFl RKywsNASoSoA5OTkRByq0vVWXl6vF3/729+we/du0aWQGERrqsY2BcAPdF3/RtO09xwOR9Brazoc jutVVT2iaZpf07R/Glhjl9xu9zyv1zsBZ9fnbDUoLS2tVNM0n8PheCLaY/bs2VNRVXW/qqp+h8Ox 8u6777ZFe4xIzJw581GHwzEwnM/Nz8+f7nK5EisqKrpzzgs6eFki5/zbgUDggKZpXNO0JofD8UE0 vw6qqj7gcDjKNE07MWPGjOcByD8/KAwzZ878364C1RbdJk2aJORBV25u7hHGmJgF5CxA1k5Vq4aq APDVV1+hvr5edBlBs1qoCgBHjx7Fu+++a8lu5li3cuVKrF27VnQZYYuHTlWv12tqqFVaWmroMhCy hqpNTU2mT3G3wgZVu3btsvTU/1bxtq4qhapyqqysxCuvvEKBKjEMdarGBwXAZM753ZqmfaDr+nP5 +fl7LnzRpEmTkiZMmLATQE7bNXAURfmRyfVe5KWXXto6bdq07unp6dWc87Y/t3bO+Yuqqs4DsNjt dt8XjfEWLFjgmzp16tgePXrUcM5vGzJkiF/TtEZd1x/Mz89/LxpjhMrhcLym6/rDjDFbIBDwud3u VyM53ltvvVUHYBQATJ8+/VlFUZyMsY5C026c85+0fB0457wkKSnph88991zYVye32/3Xu++++8Mh Q4bsVxRllqZps1r+qoEx9vHmzZt/sXbtWmvMt+2Aw+HYq+v65cG+fsKECTesXbv2SyNraqWq6kzG 2AzOeSZjjMXCm3ejyHozarVNqtryer34/PPPcddd1lh1wqoB9r59+/Duu+9iypQpsNmkejYYt1au XIk1a9aILiMiMoaqXq836kt0FBcXY8CAAVE9ZkeM7FIF5L2OmX1uZYxh3Lhxpo4ZDqtP/W9VXFwM v98v7dITbQ0YMAApKSkRvbey6nuFWHbgwAEsXryYvjfEUPKf4Ug0KQDuURTlpw6H4++BQOD3LeEq 0zTtAIAR7XzO3tzc3Gpzy2zfq6++Wg8gQVXV8pZ1Qc9hZxPgKZqmTQGw3uVy3QQgotXGFyxY4HM6 nRmNjY1nOOcpAJIVRVmsquq7iqJ8kpeX9x+RHD9YmqZ9AeCWtkF3YmLijYjw39fWnDlzngfw/PTp 06+22+1rW/69HWGMsUHNzc27WpYKOO31en/84osvhryF4pIlS+oBDLj//vtTs7OzDwHoCyCVcz5l woQJUyZMmMA558eTkpK+H0mAazan06k0NjZWc867h/ipowAYEqo6HI7rdF1/F8BA1mbXACtsICAa 3YwaY8uWLbj++uuRlZXV9YsFs2Knaqs9e/Zg8eLFmDJliqlTmcn5OOdYunSp5XcbttvtUnZjGfGQ qaioCDfeeGPUj3uh+vp6w0M0WZexMfvcOnToUGRkZJg6ZqjKy8tRWloquoyo8Pl8OHLkCIYPHy66 lC4pioJhw4ZF1M1YXl4exYpIJAKBAFavXo01a9bERNc3kRuFqvFJ4ZzfrSjKTzVN2wBgIjqYes0Y e8Pc0rrmdruzNE1bB+D6Dl5yvaZpAc75ziNHjnw7krVRnU6n/+677+4+bNiwWl3XU4CziSLn/Ect HZtFBQUFY5YuXRr1d/NPP/10L7/ffwrARe1Ff/jDHzZFezwAmDNnzlYAqTNnzhyu6/oOAMHscnJJ YmLi+pavR0Fqaur1TqezKpRxFy1a1AAge/r06b1tNtshAK3veBljbECbAPdQIBC4ds6cOcbs5BAF v/zlL5M8Hk8dwji/6roe1Xf6M2bM+JmiKH8C0CPcHVitsnOrkWj6vzF0XceKFSvwwAMPiC6lS1YO VYGzu0i/8847uPfeey3RMRRr/H4/lixZEhPdZ7KeD40IVY8cOWLKNfDrr782fCM8Wb9vZp9brbBB lRU3r+tMYWGhJUJV4OwSAJGEqnV1dWhqapL2YXy8OH78OJYsWYKyMkO2XiHkItSyEN8YzgaTHb5b 1HV9tHnlBM/lct2g6/rszl7DGBvXMl19TyRrgS5ZsiRw+PDh7oyxi96xM8aGjho1qsHhcFQ9++yz Q8Idoz2BQOBUR9PxZ82a1T+aY10oNzf3kMvlSgdwOYBg71QYY2yUx+Op1DTNN3PmzBdCHXfOnDkV LperB2PsTrTfiTvcZrOVa5rma9nATCpOp7P7JZdc0oDwH1g1R1rDzJkzr9Y0rULTNK4oymIAPSI5 XrwHqoC8N6NWnv7fau/evThy5IjoMrpk9QAbONux+uc//9nyAbHVNDc34y9/+UtMBKqAnFP/geiu p9qqsbHR8Jtyv9+PTZsMeU5+HllDHjOvY3a7HaNHS3lbc55du3aJLiGqrLSuak5OTsTHqKiQtu8j 5vn9fnzxxRd49dVXKVAlpqJQlXSKMfbzzv7e6XQqqqqubNnQqsnhcBzVNO1PTz/9dC+ja8vPz39G UZTvBvHSK4YMGeJ3OBw7EeZmSEuWLAkkJyeno4OAkXPe0+v1FmmaVj9jxoyI37GpqroC7XSotvJ6 vUsiHSMYLpdrv8vlSrXb7bcBCKXj167r+tMtm1xtdzqdIYWMeXl5S10ul41z3tHCc3bG2FxVVXWH w/HnUI5tlKlTp2Z7PJ4aRHBeZYyFuysGmzlz5gpVVXVd17cACPf3z9Jr2BpF1pvRWAj6AGDZsmXS T81qbo74eYcUioqK8Prrr6Ourk50KXGhqqoKr776Kg4ePCi6lKiR9SGTUefDoqIiQ47baufOnaZs 2ifrdczMc+vll18u7dehVVlZGU6dOiW6jKg6efKkIQ89jJCRkYFLLrkkomPQEgBi7N+/Hy+++CI+ //xz2qCTmI5CVYsy8QY0SVXVX3X0l06nU3e73bczxpw4u2P8QACPBAKBipZALaBpWpXD4Xjzscce i/qCTrm5uV80Nzf3RRDri3LOr9Q0TVdVNaw1K51Op56SkpLOOe/snUGqoii7NU1r1DTt2+GMAwCM sU7DYsbYtaEGlaG48Hv1wgsvfO5yuewAwgkwr/J4PD5N045NnTo1pBYXt9t9S2Ji4lDOebtXx5al GB5UVVXXNO03YdQWFQ6HY2BGRsYJhBnat1IU5aIN5DrzyCOP9Nc07ZSmabqu699jYbaVcs4bUlJS cnRdl39LXAFkDRFioVMVAEpKSqTfkTVWAmzg7A3u/Pnzcfz4cdGlxLSioiK8/PLLMdctI+v50KjQ pri42JDjtjJ6g6pWsoaJZp5baeq/GJxzHD58WHQZmGOi1AAAGpRJREFUQRs5cmREn0+hqrmOHz+O 119/HQsXLqSvPRGGQlWLMnNKLmPs5RkzZixWVfXfnU5nu+/K8vLynne5XIrNZnv9gr9SAPTknD+U nJzcpGkadzgcZ1RVzYtWfS+99NKplJSUBABBtd4wxiapqso1TXs31LGcTqeempravYtgFQCSAGzV NK3xsccemxDqOOikS7WVx+Mx7J1+cnJyo6ZpzQ6H4/a2H3e5XA+fPn06mXMeztyWS3v06NGgaVrp gw8+mB7sJz3//PPFbrfbDqDD+UMtYeLvVVX1Pvnkk6PCqC1szz777DDO+dFwA822qqurg2pneu65 53JUVa3v3r37cQCRPFL3KorybbfbneZ0Og/m5+fvjaBbNmbJusFHLAV9n332mdSdBbE2Zf7MmTN4 7bXXYmZKukw45/jqq6/wxhtvWKY7KxSyhqpGPWQqLi42rJHh0KFDpm1IJOt1zKxza2pqasRhmRli MVQFrLUEAIWq1lBZWYl33nkHL7/8suEzCgjpCoWqJCiKovyMMbbM4/GUa5q2xOFw/Pypp57KvPB1 s2fPfsTlcjHG2McdvQnlnHdnjGmtnawOh2PPww8/3CeS+pxOp+5yuboD2BvM61vyr3tbpo93ujZr e2O53e50AMHM10pKTk7erGmaR1XVcaGME4RLHQ7H8igfE8C5TuhEzvlnqqo2PfvssyNa/27hwoVN brc7i3M+LczD9+3du3etpmkhtaa5XK6RAF7u7DWMsYTExMR9qqquDLO2kGia1s/r9UbrnSJfsGCB r4vxLtU0ra6urq6AMZYa4XhPuVyubrm5udva1sA5XxvhcWMKY4w6fExQWVlpyrqC4Yq1UBU4uyvz e++9h6VLlxq+SU68qKurw9tvv43ly5dD17ucQGNJsq6patT5sL6+3rCQxKwuVUDeTlWzzq1jx46F zRb29gqmOHHiBCorK0WXYQgrhapDhw6NaENHClWNdeLECSxevBj5+fnYtWuX9MtHkfhAoWoMMfqk 0nL8NAA/5ZwvSkhIOKWq6mpVVZ+YOXPm4LavzcvL+w+3260A6Oodo8I5vyIzM7NM0zRd07SCJ554 IuyA1eVyjWaMvRXs61umj8/UNC0wffr0h0MYirtcru6MsWAXwkpmjO3QNK3W4XAMDKKuoN5lcs7v UFU15I7bIMZvbvP/u3m93oMXhqBut/tPFRUV7W7gFaTRLZ3L84L9BJfL9RiAB7r6WWeM3aZpWuNT Tz1lWEvNtGnT0gAcR4RT/tvo8HvudDoVTdMOADiGs7+DkTjgcrmYy+V6se0Hn3rqqWRN00oB3Bfh 8WNKUlKStJt1xcr0/1arV6+WNryMpQC7Lc451q9fjz/+8Y8xN03dbAcPHsRLL72EAwcOiC7FULJ2 qhrZFWzEEgAVFRUoKCiI+nE7Imuoata59aqr5F/dKJZnDlRXV1smME5ISMCQIeHvPVxRUUFBX5Rx zlFYWIiFCxfij3/8I3bu3BmzDy6JNVGoGkOMvvFv5/h2xtjNjLEXdV0v1jRtp8Ph+J2qqq2LFnGX y3VDTU1NIoLrIGUAcrp161amaZo+c+bMTeGsw5qXl/dQIBDodIOtdig2m+0NTdO8M2bMmBTk5/C8 vLzuuq6HssNAOuf8qKZp5VOnTs3o8MCczwn2gIyxex0Ox+oQagjGtnY+NlpVVf2ZZ565pfUDb731 Vl1eXl4qY+yLcAfinD+paZpv5syZQb3jdblciwDcEcRLk+x2e8MTTzwxNtzaOuJ0Ou1paWk1iF6g CgD72/vgjBkznvZ4PAEAEc1HanmDd5fL5brswr/TNG1dQkKCB0DfSMaIRbLeiAKxF/Q1NDRg7dq1 ostol6xhb7ScOnUKr7zyCjZv3kw3gyHyeDxYsmQJ3nrrrbjYAEzWUNXIh0xGTC1dv369qb9rsl7L zDi3ZmZmYuDALvsZhOKcS7+2eKSs1K2ak5MT9uf6fD7U1NREsZr41dDQgA0bNmDOnDl48803sX9/ u7dKhAhHoSqJpis55//DGNumaVqJqqova5r2XeBsB6mu62kASoI8FtN1/d+Sk5ObHA5H8/Tp058I pZA5c+a84/P5RgAI9R1rgqIoX2qaVj9r1qwBQbye5+fnp4cYrAJA7x49etQ4HI5ip9OZeOFfpqSk /A+C2HzrXBGc36yqarBf2y4lJiY62/s4Y4z5/f4vZs6c+XHbj+fl5X03guUAAMCu6/r2GTNmfBXM i91u92eBQGBKV69jjLFu3br9a+bMmbdGUNtFGhsbGxDEurehCAQC5y1DMXXq1ARN0yoURXkh0mNz zmtTU1MTXC7XP9p+fNasWZM1TdMBXB/pGLFK1gABiL1OVQBYt26dlDcjsR6qAoDX68WHH36I1157 jaYvBql1t+FvvvkmbsJoWaf/G3k+jHanamNjI7Zta+/ZtXFkDVXNeDg4fvx4aWectCopKUF1dbXo MgxlpVB1xIgRXb+oExUV4Ww9QQBA13UUFhbinXfewR/+8Ad88skn9J6ESI9CVWKUAYyxXwFY1aNH j9Oapr3LGPuBzWYbHwgEsgAEPQeEc55os9leVFWVq6p6UNO0oDY5mjdv3qGUlJQkdDKtuhOpPp+v RNO0oqlTpyZ09eL8/Px0znnILSqc88Eej6fZ4XBsdzqd534fnU6n7vf7bwvlWIyxAZqmeYP9+nTm +eef77TzVdf1O1VVrW5bs9vt/hPnPKL5VYqi3Khpmn/GjBldzruZM2fOYgCvBnNcXdc/f/rpp/8t ktpaaZpWzTm/KAiPVElJyUet/19V1X/v0aOHF0CvSI/LOf/a7XZnOJ3O8xZNVFW1yOfzvYcwum3j JTwA5N3cQ9d1NDc3d/1Ci/H7/fj8889Fl3GReAhVWx05cgQvvfQSVq9eDZ+v02We41ZpaSnefPNN LFy4EGfOnBFdjqlkfdBkZKh65swZVFVVRe14W7ZsgdfrjdrxgiHrtcyMc+u4cdHe0iD6du3aJboE wx0+fNgSU7arq6vxxRdhT8ADAJw+fTpK1cQHzjmOHj2KpUuX4vnnn8ebb76JXbt2Sb2BKSFtUahK zNADwL2MsfcCgcBpm832Gef8zwB+CSDoRbAYY2CMjQBQq6pqo6qqP+jqc5xOp9flciXj7FqU4RjS o0cPr8Ph+LCrF7rd7u6MsdpwBuGcX+XxeAIOh+NvrR+bO3fuagAfhHioBAC1mqZNDaeOtiUB6PRu mjHWo6GhwffMM8+cWwPX7XbvbG5u7ssjS91siqIUaZqW29ULXS7XrzjnQS0EGAgENs2aNat/BHVB 07R9OPvzHG2BJUuWBFrG+BNjbFk0Dso5f83tdl/X9mMzZ868StM0nTEW9oJRsnd8RJOsAUJTU1PM htvbtm0zbUfsYMVTqAqcnb64atUq5OfnY+fOnTH7sxaquro6/P3vf8cf//hHS3VdRZOs50SjO/ej tQSAruvYuHFjVI4VClk7VY0+t1566aXIysoydIxIcc7jIlRtbGzE8ePHRZfRIa/Xi5UrVyI/Pz/i pRios7JrXq8Xe/bswZIlS/Dcc8/h1Vdfxfr16w1dH5sQo1CoSsymAPgWY0wDsBCATdf1bQBCehTF GEtijC3VNC2gadorXb3e5XINZIyFvSM85/wuTdN0h8Pxq85el5eXl8E5DytYbRnn7pZxZgCAy+W6 G0A4d26vOxyOSBeeWdvVCxhjis/nK5s2bdq54O6ll146VV9f3yvCYBUAHJqm/aurF6Wmpg5AkMs8 eL3eo+EWo6rqOwBGhfv5neGcFwCAw+HYDOCRKB0z1+12/7+2H9M0LV/X9e2I7lqwMU3WG9FYnPrf inOOFStWiC7jHM553IWqrWpqarB48WK8/PLLKCgoiNtwta6uDp9++iny8vKwZcsWS3RbGUXG6f+6 rhs+jTxaSwDs3r1byBInsobhRn/fxo8f3/WLBCsuLkZtbdi3DpYi48Oo5uZmbNiwAS6XC2vWrIHf 7+/6k7pA0/8vxjlHWVkZNm7ciLfeegu/+93vsGjRInzzzTcUpBLLY2gJI6ZNm4a0tEg3lSbk7ElT RCeboihrkpKSvut0Oju821FV9Q+MsWciGYcx5gUwPi8vr8PNt1RVPcMY6x7JOAB8uq7flJ+f/7Wq qsWMscGhHoAxpvt8vlvnzp37ZaifO2PGjCGKogTdmqEoyj25ublLWv9b07RLEX6HcFv1KSkpGV18 X/+HMfa7YA7GOd/ndruvCKUAVVV/yRh7O5TPCQVj7D845y8BGBSlQ37COf9fRVG8AKoDgUCVzWZ7 j3Me0r+7M6J+z802ceJE3HnnnaLLuMixY8fw8ssviy7DUA8//HDE65pFQ1NTE37729+KLkMK/fv3 x6233opRo0bFxe9/VVUVNmzYgM2bN9NSCC1+85vfSHe/4PF48LvfBfUWIGw9e/bEjBkzYLfbIzrO K6+8gpKSqC2BHxRFUfDCCy9I9zvLOcczzzxj2EMKxhieffZZ6X5eL/TRRx9h06ZNosswxZAhQ/DI I1HpHYhYRUUFNm7ciG3btkX9wWmPHj3w9NNPR/WYVqPrOkpLS1FcXIyioiIUFxfHdEMAiT/19fV4 9dWzKxFG9s6AkHa0vmkzO3TRdf1mj8cTUFW1QlGUhZzzdrtfOecfMcbuCneclvU092ia1sAY+1MH 4/wJwFMAIll7M0FRlI2qqjYDeI1zfh9jrHeItSp2u32NpmlVAN4ItQDOOWdBfhN1Xf/bjBkzvlAU pe3uC4sA3B/quBdI83g8Pk3T5gHo7PExRxAdmIyxy1VV/RtjLKjAmDGWxjnvtEM5Upzzf3T9qpDc yRi7s7WrTFGUuO0wi1Xx8MZ0+fLlePzxx4UHAfHSQRSMEydO4C9/+Qt69eqFa665BldffbW0HXDh 4pyjsLAQGzdujOvu3I7I+P0243xYXV2NRYsW4f777w87WD169KjpgSpwdsaF6PNoe5qbmw3t+uac Y9myZfjxj3+MhIQut0cQQtd17NmzR3QZpikpKYHX60ViYtS3JghKbW0tCgoKsHv3bhQWFhp2fj9z 5ozQf6fZOOeorKzEyZMnceLECZw8eRIlJSVxO8uHxB8KVYlhRL2BY4z15pzP6OTvozVUamfjRAtj rBuAJyI8TCYARxhjh/R6RVFuBXBrqOMEc2jO+fRofe8YY3cH+9p4v6GOl47UjmzcuBFerxff//73 pQoTzNgxWbSTJ09ix44dQqdvlpaW4i9/+Yuw8WVVWVmJZcuWYdWqVRgzZgyuuuoqDB8+HIpi3VWl KioqsGPHDmzfvj2qmxLFksTERNhsNtFlXMSsqaMFBQVYuHAhpkyZEtYyCOvXrzegqq7F8yZV27dv R2lpKSZPnozs7GzDxwvV4cOHUV9fL7oM0wQCAWzcuBGjR49Gz549DT+f+Hw+lJaW4sCBA9i/fz9O njxpyvt6zjleeeUV5OTkICcnB4MHD5by3BkOj8eD8vJylJeXo7S0FCdOnEBpaSkFqCSuUahKCLGE eA72RIr3rzvnHFu3bsXevXtxyy234Jprrol4+mc0xEOoCgArV67E2LFjTf+ac86xadMmLFu2jKZ9 d8Ln82H79u3Yvn070tPTMXbsWIwaNQpDhw61xA1kWVkZCgoKsGfPHhw7Fo3VamKbjOupAuZ27hcW FuKll17C5MmTMXTo0KA/r7q6WlhHoqxrg5t1HSstLcX8+fMxadIk3HTTTVKFzP/6V5dbB8ScFStW YMWKFbDZbMjMzESfPn2QlZWFrKwspKWlIT09HampqUhNTQ3q2u/3+9HQ0ID6+nrU1dWhrKwMJ0+e RGlpKSoqKoStgV1WVoaysjJ89dVXSExMxPDhw5GTk4ORI0ciMzNTSE3BamhowJkzZ1BZWYnKyspz IWp5eXlczJQiJFTi7wyJVOK9K40QQtrj8XiwdOlSfPnll5g4cSK+/e1vo3v3SJdNDp3P58Px48el 3OzBCDU1NVi0aBGuueYajBw50pSgrqysDJ988gkOHz5s+FixpK6uDhs2bMCGDRvQrVs3jBgxAiNG jMDgwYPRp08fKd5b1NbWnlvf7cCBA6iurhZdkqXI1K3fltk3+TU1NXj99dcxatQofOc738HAgQM7 /PkuLy/H5s2b8c033wgLd2QNVc3sbAsEAli9ejU2bdqEm2++Gddee63wBz+BQAB793a4PUPMCwQC 54K6jiQlJbX7MKd1VkRdXR2am5sNqzFavF4v9u3bh3379gEAevfufS5gHTZsmCnLUwQCAXg8nnN/ GhoaUFtbizNnzlz0JxqbdREST2ijKkIIISGL9wcwiqJgxIgRyMnJwfDhw3HJJZdE/evBOUd1dTVK SkpQUlKCo0ePorS0FIFAu8tFx7yUlBSMGTMG48aNw5AhQ6L+9T59+jS+/PJL7Ny5M653dzdCcnIy Bg0ahP79+6Nv377Izs5Gr169DF0uoLa2FqWlpSgrK0NpaSlKSkpQWVlp2HjxoHfv3rjxxhvP+5ii KJ12/nUWxCYlJXX4M9DZUgMJCQnndbB9/fXXWLlyZWelG6p79+4YNmwYevbsiW7duqGpqQk1NTUo Li5GTU2NsLpa9e3bF9dddx10Xe80gOqsc7SpqanDadNer7fD65Lf7++w27+hoQEnT57spHLj9OzZ EzfeeCPGjRsnrAO7oKAAb79t2B6oxCLsdjuGDBmCkSNHXrRMgNfrvSjg9Pl8536v/H4/Ghsbz/13 U1MT/H4/vF4vmpqazoWnHo/HEuEzIVbSdqMqClUJIYSELN5D1QulpaVh+PDhyM7ORs+ePZGZmYnM zEykpqZ2+Dmcc3g8HjQ2NsLj8aCqqgqnT59GeXk5KioqUF5eTlPPO5CamoqhQ4diyJAhGDp0KPr2 7RvWz+OZM2dQUFCA7du34+jRo3G/hrKZbDYbevTogczMTPTs2RMZGRlISUlBSkoKkpOTkZqaCsbY eaFdIBCA1+sFcHaTm9abxdapn1VVVaiurkZVVdW51xFCSEfsdjsuv/xyfOtb38LIkSNNXRf6/fff x/bt200bjxBCSPRQqEoIISQiFKoGp223VdsdmBsbG+NmXVQzJCcno1+/fucCutZg2+/3nxeUejwe VFdXo6ysDCdOnMDp06cFVk0IIUQWKSkp5z2sy87ONux9jt/vx3PPPUeb+xBCiEW1DVVpTVUSdRS2 xKZIvq/0M2EO+jrLp223HIWoxmlsbMThw4dpHVRCCCFh8Xg82LNnz7kNxZKTk88tVdL6JzMzE+np 6UhMTDzvQWl7GhsbEQgEUFtbe9Gf8vJyClQJISRGUKhKoo5CndgUyfeVfibMEa2vM4WzhBBCCIln jY2NKCoqQlFRUYevsdvtSEhIQHJyMpqbm8+tW0vrchNCSPygUJUQQsh5KFAlhBBCCOmc3+8/t1kQ IYSQ+GTeatyEEEIIIYQQQgghhBASAyhUtTjaqZgQQgghhBBCCCGEEHNRqGpxNE2XWBE9DCCEEEII IYQQQoiVUagagyiwIrKjhwGEEEIIIYQQQgixMgpVYxAFVoQQQgghhBBCCCGEGIdCVUIIIYQQQggh hBBCCAkBhaqEEEIIIYQQQgghhBASAgpVCSGEEEIIIYQQQgghJAQUqhJCCCGEEEIIIYQQQkgIKFQl hBBCCCGEEEIIIYSQEFCoSgghhBBCCCGEEEIIISGgUJUQQgghhBBCCCGEEEJCQKEqIYQQQgghhBBC CCGEhIBCVUIIIYQQQgghhBBCCAkBhaqEEEIIIYQQQgghhBASAgpVCSGEEEIIIYQQQgghJAQUqhJC CCGEEEIIIYQQQkgIKFQlhBBCCCGEEEIIIYSQEFCoSgghhBBCCCGEEEIIISGgUJUQQgghhBBCCCGE EEJCQKEqIYQQQgghhBBCCCGEhIBCVUIIIYQQQgghhBBCCAkBhaqEEEIIIYQQQgghhBASAgpVCSGE EEIIIYQQQgghJAQUqhJCCCGEEEIIIYQQQkgIKFQlhBBCCCGEEEIIIYSQEFCoSgghhBBCCCGEEEII ISGgUJUQQgghhBBCCCGEEEJCQKEqIYQQQgghhBBCCCGEhIBCVUIIIYQQQgghhBBCCAkBhaqEEEII IYQQQgghhBASAgpVCSGEEEIIIYQQQgghJAQUqhJCCCGEEEIIIYQQQkgIKFQlhBBCCCGEEEIIIYSQ EFCoSgghhBBCCCGEEEIIISGgUJUQQgghhBBCCCGEEEJCQKEqIYQQQgghhBBCCCGEhIBCVUIIIYQQ QgghhBBCCAkBhaqEEEIIIYQQQgghhBASAgpVCSGEEEIIIYQQQgghJAQUqhJCCCGEEEIIIYQQQkgI KFQlhBBCCCGEEEIIIYSQEFCoSgghhBBCCCGEEEIIISGgUJUQQgghhBBCCCGEEEL+fzt2iIMADERR sCU9R+9/xSpQIEmeaggzasWKr18gqgIAAAAABKIqAAAAAEAgqgIAAAAABKIqAAAAAEAgqgIAAAAA BKIqAAAAAEAgqgIAAAAABKIqAAAAAEAgqgIAAAAABKIqAAAAAEAgqgIAAAAABKIqAAAAAEAgqgIA AAAABKIqAAAAAEAgqgIAAAAABKIqAAAAAEAgqgIAAAAABKIqAAAAAEAgqgIAAAAABKIqAAAAAEAg qgIAAAAABKIqAAAAAEAgqgIAAAAABKIqAAAAAEAgqgIAAAAABKIqAAAAAEAgqgIAAAAABKIqAAAA AEAgqgIAAAAABKIqAAAAAEAgqgIAAAAABKIqAAAAAEAgqgIAAAAABKIqAAAAAEAgqgIAAAAABKIq AAAAAEAgqgKQzTlvTwAAAIBrRFUAAAAAgEBUBQAAAAAIRFUAAAAAgEBUBQAAAAAIRFUAAAAAgEBU BQAAAAAIRFUAAAAAgEBUBQAAAAAIRFUAAAAAgEBUBQAAAAAIRFUAAAAAgEBUBQAAAAAIRFUAAAAA gEBUBQAAAAAIRFUAAAAAgEBUBQAAAAAIRFUAAAAAgEBUBQAAAAAIRFUAAAAAgEBUBQAAAAAIRFUA AAAAgEBUBQAAAAAI1vs454y11rdfAAAAAIC/dM753HOM8bw3BQAAAADgtzz23rc3AAAAAAD8hL33 eAHjULoQ37fxXQAAAABJRU5ErkJggg== "
       id="image893"
       x="40.254543"
       y="128.88022" />
    <path
       style="opacity:1;vector-effect:none;fill:#ffffff;fill-opacity:1;stroke:none;stroke-width:0.15741472;stroke-linecap:butt;stroke-linejoin:round;stroke-miterlimit:4;stroke-dasharray:none;stroke-dashoffset:0;stroke-opacity:0.94527366"
       d="m 61.912985,81.38849 -0.674378,0.548801 c -0.888905,0.723951 -1.712301,1.445739 -3.895887,3.414779 -0.995822,0.897972 -2.108366,1.86908 -2.4722,2.158008 -0.614532,0.488 -0.850329,0.795271 -3.324863,4.321701 l -2.663917,3.795633 0.757576,0.380855 c 0.756258,0.380021 0.758428,0.380661 1.102773,0.242879 0.462605,-0.185089 0.493289,-0.177644 0.451135,0.109556 -0.02077,0.141539 0.0138,0.286507 0.08113,0.338998 0.118028,0.092 1.576769,0.563671 1.718241,0.555522 0.04141,-0.002 -0.202535,-0.148834 -0.542083,-0.325562 -0.399651,-0.208021 -0.563176,-0.333338 -0.46354,-0.355018 0.237805,-0.0517 1.482998,0.289298 2.292369,0.627869 0.621414,0.259945 1.39061,0.415796 1.39061,0.281636 0,-0.0221 -0.38695,-0.364625 -0.859896,-0.761193 -0.912608,-0.765231 -1.057476,-0.932916 -0.716235,-0.829924 0.36898,0.111369 1.638414,0.723498 2.455148,1.183907 0.561587,0.31658 0.889702,0.447001 1.123445,0.447001 h 0.330213 l -0.701249,-0.705385 c -0.385778,-0.388059 -0.64186,-0.705382 -0.568957,-0.705382 0.0729,0 0.74649,0.305951 1.497065,0.680062 0.750578,0.37411 1.401422,0.697095 1.445909,0.717785 0.04449,0.0207 -0.0054,-0.08341 -0.110588,-0.230992 -0.258879,-0.363572 -0.244623,-0.671131 0.04134,-0.896069 0.310118,-0.243941 0.561337,-0.244129 0.497644,-5.19e-4 -0.03599,0.137641 0.07278,0.299008 0.447,0.661458 l 0.49506,0.479042 h 0.654224 0.653706 l -0.09043,-0.355534 c -0.04969,-0.195771 -0.06717,-0.379317 -0.03876,-0.407726 0.06856,-0.0686 0.765287,0.343001 0.977721,0.577742 0.09235,0.102036 0.27048,0.18392 0.396356,0.181901 0.223814,-0.004 0.221483,-0.01036 -0.123508,-0.315743 -0.47131,-0.417251 -1.260763,-0.846474 -2.097029,-1.139981 -0.377253,-0.132401 -0.668747,-0.258332 -0.647504,-0.27957 0.0668,-0.0668 1.54446,0.239702 2.292366,0.475422 0.835953,0.26348 1.432711,0.549106 2.017448,0.965316 0.407477,0.290037 1.036113,0.419145 1.036113,0.212908 0,-0.157538 -0.623218,-0.709861 -1.111562,-0.98547 -0.266237,-0.150251 -0.464166,-0.292896 -0.440282,-0.316777 0.07284,-0.0728 1.308679,0.330231 1.684136,0.54932 0.194027,0.113209 0.489643,0.348548 0.656807,0.522448 0.27958,0.290857 0.34454,0.315744 0.810802,0.315744 0.501896,0 0.511718,-0.0048 0.975135,-0.497645 0.257406,-0.273798 0.700503,-0.692671 0.984952,-0.930693 0.482245,-0.40355 0.527891,-0.422992 0.674377,-0.290419 0.213591,0.193299 0.259131,0.601098 0.134877,1.20406 l -0.10387,0.504362 0.314709,-0.248047 c 0.436239,-0.343471 1.078592,-0.652984 1.858285,-0.895554 0.363802,-0.113178 0.674465,-0.21337 0.690398,-0.223242 0.04682,-0.029 -1.098854,-3.822395 -1.670701,-5.531445 -0.884679,-2.644 -1.608026,-4.310703 -2.045869,-4.713922 -0.106048,-0.0977 -1.854279,-1.152787 -3.884517,-2.345079 z m 2.624645,4.856549 c 0.356434,0.0078 0.689877,0.04521 0.902272,0.115755 0.56598,0.187992 1.149532,0.699222 1.429369,1.252122 0.316158,0.62466 0.354364,1.60274 0.08682,2.22467 -0.39106,0.909039 -1.511208,1.689301 -2.425177,1.689301 -0.365683,0 -0.525473,0.191994 -0.708485,0.850595 -0.181306,0.652471 -0.132667,0.897284 0.268203,1.341004 0.50361,0.557429 0.603671,1.018595 0.341064,1.571995 -0.244539,0.515332 -0.838989,0.762646 -1.544609,0.642856 -0.660508,-0.112131 -0.869563,-0.392359 -0.996839,-1.335318 -0.07037,-0.52133 -0.350583,-0.940313 -0.798917,-1.194242 -0.433567,-0.24557 -0.743728,-0.251026 -1.387512,-0.02481 -1.559785,0.548232 -2.799313,-0.213299 -2.799313,-1.719792 0,-0.616947 0.152231,-0.985499 0.552421,-1.336868 0.622118,-0.54623 1.463064,-0.603427 2.490288,-0.169497 0.611454,0.258299 0.919808,0.280609 1.280541,0.09405 0.362074,-0.187238 0.430974,-0.36394 0.468706,-1.202511 0.05342,-1.187148 0.577453,-2.217488 1.324467,-2.605008 0.265229,-0.137594 0.922647,-0.207356 1.516703,-0.194304 z m -2.78226,4.136699 c -1.547162,-0.004 -1.608169,2.625021 -0.06924,2.986381 0.482666,0.11334 1.213501,0.04026 1.414383,-0.141594 0.198615,-0.179739 0.418579,-0.915826 0.418579,-1.400948 0,-0.28371 -0.03893,-0.387135 -0.159163,-0.425296 -0.0874,-0.0277 -0.414817,-0.267917 -0.727604,-0.533818 -0.452118,-0.384339 -0.63155,-0.484024 -0.876951,-0.484725 z m 11.591025,6.2606 c -0.119054,0 -0.815639,0.456578 -1.006657,0.659908 -0.321803,0.342535 -0.01079,0.288816 0.573608,-0.09922 0.266041,-0.176649 0.48369,-0.375417 0.48369,-0.441317 0,-0.0659 -0.0229,-0.119372 -0.05064,-0.119372 z"
       id="rect1471"
       inkscape:connector-curvature="0" />
    <text
       xml:space="preserve"
       style="font-style:normal;font-weight:normal;font-size:19.76077271px;line-height:1.25;font-family:sans-serif;letter-spacing:0px;word-spacing:0px;fill:#000000;fill-opacity:1;stroke:none;stroke-width:0.49401924"
       x="81.117851"
       y="92.092049"
       id="text1475"
       transform="scale(0.93824939,1.0658147)"><tspan
         sodipodi:role="line"
         id="tspan1473"
         x="81.117851"
         y="92.092049"
         style="font-style:normal;font-variant:normal;font-weight:normal;font-stretch:normal;font-family:'Elemental End';-inkscape-font-specification:'Elemental End';fill:#ffffff;stroke-width:0.49401924">NOMAD</tspan></text>
    <path
       style="opacity:1;vector-effect:none;fill:#000000;fill-opacity:1;stroke:none;stroke-width:0.46576706;stroke-linecap:butt;stroke-linejoin:round;stroke-miterlimit:4;stroke-dasharray:none;stroke-dashoffset:0;stroke-opacity:0.94527366"
       d="m 264.78214,173.03883 c -1.10445,-0.0136 -2.25063,0.16537 -3.39463,0.55914 -1.62576,0.5596 -3.98037,2.97419 -4.65294,4.7718 -0.51416,1.37425 -0.67349,3.52876 -0.38603,5.22449 l 0.15452,0.91105 -1.93633,1.017 -1.9363,1.01699 -0.74466,-0.70693 c -1.32152,-1.25429 -2.13835,-1.55098 -4.27416,-1.55185 -2.22443,-8.6e-4 -3.16117,0.3516 -4.4452,1.67277 -1.25404,1.29032 -1.7671,2.55736 -1.75597,4.33617 0.005,0.83882 0.15923,1.87845 0.3421,2.31045 0.48192,1.13844 1.93296,2.61842 3.21789,3.28249 2.10587,1.08837 5.05609,0.64273 6.86985,-1.03818 0.46853,-0.43419 0.48551,-0.42771 2.61845,1.01286 l 2.14718,1.45004 -0.0781,1.38751 c -0.0429,0.76313 0.0353,1.73035 0.17365,2.14974 0.30805,0.93341 1.9776,2.61562 2.8825,2.90421 1.15811,0.36935 3.00845,0.0916 4.00855,-0.60151 1.54992,-1.0741 2.29142,-3.19374 1.78077,-5.09013 -0.26138,-0.97066 -1.12797,-2.03249 -2.23655,-2.74092 l -0.52763,-0.33744 0.5452,-2.39056 0.54518,-2.39055 1.69034,-0.14107 c 2.04592,-0.17071 2.94963,-0.4815 4.35631,-1.49914 2.88422,-2.08652 4.07847,-5.38657 3.26803,-9.02942 -0.87588,-3.93687 -4.28755,-6.4404 -8.23206,-6.48901 z m -7.43313,13.17387 c 0.14822,0 0.41852,0.28792 0.60048,0.63976 0.40486,0.78292 2.20339,2.21518 3.26284,2.59829 0.76732,0.27747 0.77779,0.29912 0.62838,1.29553 -0.26712,1.78126 -1.02338,3.90803 -1.43401,4.03283 -0.30205,0.0918 -1.60594,0.68397 -2.54868,1.15755 -0.0626,0.0314 -1.12078,-0.61833 -2.3518,-1.44384 -2.11762,-1.42007 -2.22824,-1.53327 -2.04949,-2.10117 0.10393,-0.33013 0.1797,-1.47129 0.16846,-2.53576 l -0.0201,-1.93528 1.73736,-0.8537 c 0.95557,-0.46962 1.85836,-0.85421 2.0066,-0.85421 z"
       id="path1470"
       inkscape:connector-curvature="0"
       sodipodi:nodetypes="ccccccccccccccccccccccccccccccccccscccccccc" />
    <g
       id="g1477"
       transform="matrix(1.0364756,0,0,1.0364756,-9.498866,-0.4363445)">
      <path
         inkscape:connector-curvature="0"
         id="rect1471-6"
         d="m 257.52506,94.86228 -1.99538,1.623823 c -2.63015,2.142082 -5.06645,4.277737 -11.52735,10.103837 -2.94649,2.65695 -6.23837,5.53032 -7.31488,6.38522 -1.81831,1.44393 -2.51601,2.3531 -9.83778,12.78728 l -7.88215,11.23073 2.24156,1.12689 c 2.23763,1.12443 2.24406,1.12631 3.26294,0.71864 1.36878,-0.54765 1.45959,-0.52562 1.33484,0.32415 -0.0615,0.41881 0.0409,0.84775 0.24006,1.00305 0.34924,0.27222 4.66544,1.66783 5.08402,1.6437 0.1225,-0.006 -0.59927,-0.44039 -1.60395,-0.96329 -1.18251,-0.61548 -1.66633,-0.98629 -1.37153,-1.05043 0.70365,-0.15297 4.38796,0.856 6.78277,1.85777 1.83866,0.76912 4.11462,1.23029 4.11462,0.83332 0,-0.0654 -1.14491,-1.07887 -2.54431,-2.25226 -2.70025,-2.26421 -3.12892,-2.76039 -2.11922,-2.45563 1.09175,0.32953 4.84779,2.14072 7.26442,3.50301 1.66162,0.93672 2.6325,1.32261 3.3241,1.32261 h 0.97706 l -2.07489,-2.08713 c -0.79768,-0.80237 -1.38385,-1.48126 -1.60549,-1.83024 h 0.61774 c 0.80427,0.33905 2.19397,0.98779 3.73388,1.75532 2.22086,1.10695 4.14662,2.06261 4.27822,2.12383 0.13167,0.0613 -0.0148,-0.24678 -0.3272,-0.68348 -0.766,-1.07574 -0.72372,-1.98577 0.12231,-2.65134 0.91757,-0.72177 1.66091,-0.7223 1.47245,-8.8e-4 -0.10653,0.40729 0.21542,0.88473 1.32262,1.95716 l 1.46481,1.41742 h 1.93575 1.93421 l -0.26758,-1.05198 c -0.14702,-0.57925 -0.1987,-1.12233 -0.11469,-1.2064 0.20299,-0.20297 2.26443,1.0149 2.89298,1.70947 0.27307,0.30187 0.80025,0.54418 1.17274,0.5382 0.66222,-0.0119 0.65533,-0.0308 -0.36545,-0.93423 -1.39451,-1.23458 -3.73041,-2.50458 -6.2048,-3.37304 -1.11623,-0.39176 -1.97875,-0.76437 -1.91587,-0.82721 0.19765,-0.19765 4.56984,0.70925 6.78276,1.40671 2.47345,0.77961 4.2392,1.62473 5.96933,2.85622 1.20569,0.85819 3.06571,1.2402 3.06571,0.62996 0,-0.46612 -1.84397,-2.10036 -3.2889,-2.91585 -0.78779,-0.44457 -1.37345,-0.86664 -1.30277,-0.93729 0.21537,-0.21541 3.87221,0.97709 4.98309,1.62535 0.57415,0.33497 1.44884,1.03131 1.94347,1.54585 0.82717,0.86061 1.01944,0.93424 2.399,0.93424 1.48508,0 1.51405,-0.0148 2.88532,-1.47245 0.76156,-0.81015 2.07263,-2.04952 2.91427,-2.75379 1.42693,-1.19405 1.56198,-1.25161 1.99538,-0.85933 0.632,0.57196 0.76673,1.77858 0.39909,3.56266 l -0.30735,1.49232 0.93122,-0.73393 c 1.29079,-1.01628 3.19142,-1.93207 5.49837,-2.64981 1.07642,-0.33488 1.99559,-0.63133 2.04279,-0.66054 0.1385,-0.0857 -3.25138,-11.30991 -4.94338,-16.36673 -2.61759,-7.82321 -4.75793,-12.75475 -6.05342,-13.94782 -0.31378,-0.28907 -5.48653,-3.41092 -11.49369,-6.93873 z m 33.82979,45.1339 c -0.35229,0 -2.41333,1.35096 -2.97857,1.95258 -0.95219,1.01351 -0.0319,0.85451 1.69725,-0.29358 0.78718,-0.52268 1.43116,-1.1108 1.43116,-1.30579 0,-0.19499 -0.0664,-0.35321 -0.14835,-0.35321 z"
         style="opacity:1;vector-effect:none;fill:#438a6b;fill-opacity:1;stroke:none;stroke-width:0.46576706;stroke-linecap:butt;stroke-linejoin:round;stroke-miterlimit:4;stroke-dasharray:none;stroke-dashoffset:0;stroke-opacity:0.94527366" />
      <path
         style="opacity:1;vector-effect:none;fill:#ffffff;fill-opacity:1;stroke:none;stroke-width:0.46576706;stroke-linecap:butt;stroke-linejoin:round;stroke-miterlimit:4;stroke-dasharray:none;stroke-dashoffset:0;stroke-opacity:0.94527366"
         d="m 263.8372,105.00312 c -1.10445,-0.0136 -2.25063,0.16537 -3.39463,0.55914 -1.62576,0.5596 -3.98037,2.97419 -4.65294,4.7718 -0.51416,1.37425 -0.67349,3.52876 -0.38603,5.22449 l 0.15452,0.91105 -1.93633,1.017 -1.9363,1.01699 -0.74466,-0.70693 c -1.32152,-1.25429 -2.13835,-1.55098 -4.27416,-1.55185 -2.22443,-8.6e-4 -3.16117,0.3516 -4.4452,1.67277 -1.25404,1.29032 -1.7671,2.55736 -1.75597,4.33617 0.005,0.83882 0.15923,1.87845 0.3421,2.31045 0.48192,1.13844 1.93296,2.61842 3.21789,3.28249 2.10587,1.08837 5.05609,0.64273 6.86985,-1.03818 0.46853,-0.43419 0.48551,-0.42771 2.61845,1.01286 l 2.14718,1.45004 -0.0781,1.38751 c -0.0429,0.76313 0.0353,1.73035 0.17365,2.14974 0.30805,0.93341 1.9776,2.61562 2.8825,2.90421 1.15811,0.36935 3.00845,0.0916 4.00855,-0.60151 1.54992,-1.0741 2.29142,-3.19374 1.78077,-5.09013 -0.26138,-0.97066 -1.12797,-2.03249 -2.23655,-2.74092 l -0.52763,-0.33744 0.5452,-2.39056 0.54518,-2.39055 1.69034,-0.14107 c 2.04592,-0.17071 2.94963,-0.4815 4.35631,-1.49914 2.88422,-2.08652 4.07847,-5.38657 3.26803,-9.02942 -0.87588,-3.93687 -4.28755,-6.4404 -8.23206,-6.48901 z m -7.43313,13.17387 c 0.14822,0 0.41852,0.28792 0.60048,0.63976 0.40486,0.78292 2.20339,2.21518 3.26284,2.59829 0.76732,0.27747 0.77779,0.29912 0.62838,1.29553 -0.26712,1.78126 -1.02338,3.90803 -1.43401,4.03283 -0.30205,0.0918 -1.60594,0.68397 -2.54868,1.15755 -0.0626,0.0314 -1.12078,-0.61833 -2.3518,-1.44384 -2.11762,-1.42007 -2.22824,-1.53327 -2.04949,-2.10117 0.10393,-0.33013 0.1797,-1.47129 0.16846,-2.53576 l -0.0201,-1.93528 1.73736,-0.8537 c 0.95557,-0.46962 1.85836,-0.85421 2.0066,-0.85421 z"
         id="path1473"
         inkscape:connector-curvature="0"
         sodipodi:nodetypes="ccccccccccccccccccccccccccccccccccscccccccc" />
    </g>
  </g>
</svg>
